solid OpenSCAD_Model
  facet normal 0 0 -1
    outer loop
      vertex 26.9129 -0.227166 0
      vertex 26.9129 0.227166 0
      vertex 26.9272 0 0
    endloop
  endfacet
  facet normal 0 0 -1
    outer loop
      vertex 26.8703 -0.45075 0
      vertex 26.9129 0.227166 0
      vertex 26.9129 -0.227166 0
    endloop
  endfacet
  facet normal 0 0 -1
    outer loop
      vertex 26.8703 -0.45075 0
      vertex 26.8703 0.45075 0
      vertex 26.9129 0.227166 0
    endloop
  endfacet
  facet normal 0 0 -1
    outer loop
      vertex 26.8 -0.667225 0
      vertex 26.8703 0.45075 0
      vertex 26.8703 -0.45075 0
    endloop
  endfacet
  facet normal 0 0 -1
    outer loop
      vertex 26.8 -0.667225 0
      vertex 26.8 0.667225 0
      vertex 26.8703 0.45075 0
    endloop
  endfacet
  facet normal 0 0 -1
    outer loop
      vertex 26.703 -0.873178 0
      vertex 26.8 0.667225 0
      vertex 26.8 -0.667225 0
    endloop
  endfacet
  facet normal 0 0 -1
    outer loop
      vertex 26.703 -0.873178 0
      vertex 26.703 0.873178 0
      vertex 26.8 0.667225 0
    endloop
  endfacet
  facet normal 0 0 -1
    outer loop
      vertex 26.5811 -1.06536 0
      vertex 26.703 0.873178 0
      vertex 26.703 -0.873178 0
    endloop
  endfacet
  facet normal 0 0 -1
    outer loop
      vertex 26.5811 -1.06536 0
      vertex 26.5811 1.06536 0
      vertex 26.703 0.873178 0
    endloop
  endfacet
  facet normal 0 0 -1
    outer loop
      vertex 26.436 -1.24074 0
      vertex 26.5811 1.06536 0
      vertex 26.5811 -1.06536 0
    endloop
  endfacet
  facet normal 0 0 -1
    outer loop
      vertex 26.436 -1.24074 0
      vertex 26.436 1.24074 0
      vertex 26.5811 1.06536 0
    endloop
  endfacet
  facet normal 0 0 -1
    outer loop
      vertex 26.2701 -1.39655 0
      vertex 26.436 1.24074 0
      vertex 26.436 -1.24074 0
    endloop
  endfacet
  facet normal 0 0 -1
    outer loop
      vertex 26.2701 -1.39655 0
      vertex 26.2701 1.39655 0
      vertex 26.436 1.24074 0
    endloop
  endfacet
  facet normal 0 0 -1
    outer loop
      vertex 26.0859 -1.53034 0
      vertex 26.2701 1.39655 0
      vertex 26.2701 -1.39655 0
    endloop
  endfacet
  facet normal 0 0 -1
    outer loop
      vertex 26.0859 -1.53034 0
      vertex 26.0859 1.53034 0
      vertex 26.2701 1.39655 0
    endloop
  endfacet
  facet normal 0 0 -1
    outer loop
      vertex 25.8865 -1.64 0
      vertex 26.0859 1.53034 0
      vertex 26.0859 -1.53034 0
    endloop
  endfacet
  facet normal 0 0 -1
    outer loop
      vertex 25.8865 -1.64 0
      vertex 25.8865 1.64 0
      vertex 26.0859 1.53034 0
    endloop
  endfacet
  facet normal 0 0 -1
    outer loop
      vertex 25.6748 -1.72379 0
      vertex 25.8865 1.64 0
      vertex 25.8865 -1.64 0
    endloop
  endfacet
  facet normal 0 0 -1
    outer loop
      vertex 25.6748 -1.72379 0
      vertex 25.6748 1.72379 0
      vertex 25.8865 1.64 0
    endloop
  endfacet
  facet normal 0 0 -1
    outer loop
      vertex 2.84566 -8.75803 0
      vertex 25.6748 1.72379 0
      vertex 25.6748 -1.72379 0
    endloop
  endfacet
  facet normal 0 0 -1
    outer loop
      vertex 2.84566 -8.75803 0
      vertex 2.84566 8.75803 0
      vertex 25.6748 1.72379 0
    endloop
  endfacet
  facet normal 0 0 -1
    outer loop
      vertex 1.72554 -9.04562 0
      vertex 2.84566 8.75803 0
      vertex 2.84566 -8.75803 0
    endloop
  endfacet
  facet normal 0 0 -1
    outer loop
      vertex 1.72554 -9.04562 0
      vertex 1.72554 9.04562 0
      vertex 2.84566 8.75803 0
    endloop
  endfacet
  facet normal 0 0 -1
    outer loop
      vertex 0.578221 -9.19057 0
      vertex 1.72554 9.04562 0
      vertex 1.72554 -9.04562 0
    endloop
  endfacet
  facet normal 0 0 -1
    outer loop
      vertex 0.578221 -9.19057 0
      vertex 0.578221 9.19057 0
      vertex 1.72554 9.04562 0
    endloop
  endfacet
  facet normal 0 0 -1
    outer loop
      vertex -0.578221 -9.19057 0
      vertex 0.578221 9.19057 0
      vertex 0.578221 -9.19057 0
    endloop
  endfacet
  facet normal 0 0 -1
    outer loop
      vertex -0.578221 -9.19057 0
      vertex -0.578221 9.19057 0
      vertex 0.578221 9.19057 0
    endloop
  endfacet
  facet normal 0 0 -1
    outer loop
      vertex -1.72554 -9.04562 0
      vertex -0.578221 9.19057 0
      vertex -0.578221 -9.19057 0
    endloop
  endfacet
  facet normal 0 0 -1
    outer loop
      vertex -1.72554 -9.04562 0
      vertex -1.72554 9.04562 0
      vertex -0.578221 9.19057 0
    endloop
  endfacet
  facet normal 0 0 -1
    outer loop
      vertex -2.84566 -8.75803 0
      vertex -1.72554 9.04562 0
      vertex -1.72554 -9.04562 0
    endloop
  endfacet
  facet normal 0 0 -1
    outer loop
      vertex -2.84566 -8.75803 0
      vertex -2.84566 8.75803 0
      vertex -1.72554 9.04562 0
    endloop
  endfacet
  facet normal 0 0 -1
    outer loop
      vertex -25.6748 -1.72379 0
      vertex -2.84566 8.75803 0
      vertex -2.84566 -8.75803 0
    endloop
  endfacet
  facet normal 0 0 -1
    outer loop
      vertex -25.6748 -1.72379 0
      vertex -25.6748 1.72379 0
      vertex -2.84566 8.75803 0
    endloop
  endfacet
  facet normal 0 0 -1
    outer loop
      vertex -25.8865 -1.64 0
      vertex -25.6748 1.72379 0
      vertex -25.6748 -1.72379 0
    endloop
  endfacet
  facet normal 0 0 -1
    outer loop
      vertex -25.8865 -1.64 0
      vertex -25.8865 1.64 0
      vertex -25.6748 1.72379 0
    endloop
  endfacet
  facet normal 0 0 -1
    outer loop
      vertex -26.0859 -1.53034 0
      vertex -25.8865 1.64 0
      vertex -25.8865 -1.64 0
    endloop
  endfacet
  facet normal 0 0 -1
    outer loop
      vertex -26.0859 -1.53034 0
      vertex -26.0859 1.53034 0
      vertex -25.8865 1.64 0
    endloop
  endfacet
  facet normal 0 0 -1
    outer loop
      vertex -26.2701 -1.39655 0
      vertex -26.0859 1.53034 0
      vertex -26.0859 -1.53034 0
    endloop
  endfacet
  facet normal 0 0 -1
    outer loop
      vertex -26.2701 -1.39655 0
      vertex -26.2701 1.39655 0
      vertex -26.0859 1.53034 0
    endloop
  endfacet
  facet normal 0 0 -1
    outer loop
      vertex -26.436 -1.24074 0
      vertex -26.2701 1.39655 0
      vertex -26.2701 -1.39655 0
    endloop
  endfacet
  facet normal 0 0 -1
    outer loop
      vertex -26.436 -1.24074 0
      vertex -26.436 1.24074 0
      vertex -26.2701 1.39655 0
    endloop
  endfacet
  facet normal 0 0 -1
    outer loop
      vertex -26.5811 -1.06536 0
      vertex -26.436 1.24074 0
      vertex -26.436 -1.24074 0
    endloop
  endfacet
  facet normal 0 0 -1
    outer loop
      vertex -26.5811 -1.06536 0
      vertex -26.5811 1.06536 0
      vertex -26.436 1.24074 0
    endloop
  endfacet
  facet normal 0 0 -1
    outer loop
      vertex -26.703 -0.873178 0
      vertex -26.5811 1.06536 0
      vertex -26.5811 -1.06536 0
    endloop
  endfacet
  facet normal 0 0 -1
    outer loop
      vertex -26.703 -0.873178 0
      vertex -26.703 0.873178 0
      vertex -26.5811 1.06536 0
    endloop
  endfacet
  facet normal 0 0 -1
    outer loop
      vertex -26.8 -0.667225 0
      vertex -26.703 0.873178 0
      vertex -26.703 -0.873178 0
    endloop
  endfacet
  facet normal 0 0 -1
    outer loop
      vertex -26.8 -0.667225 0
      vertex -26.8 0.667225 0
      vertex -26.703 0.873178 0
    endloop
  endfacet
  facet normal 0 0 -1
    outer loop
      vertex -26.8703 -0.45075 0
      vertex -26.8 0.667225 0
      vertex -26.8 -0.667225 0
    endloop
  endfacet
  facet normal 0 0 -1
    outer loop
      vertex -26.8703 -0.45075 0
      vertex -26.8703 0.45075 0
      vertex -26.8 0.667225 0
    endloop
  endfacet
  facet normal 0 0 -1
    outer loop
      vertex -26.9129 -0.227166 0
      vertex -26.8703 0.45075 0
      vertex -26.8703 -0.45075 0
    endloop
  endfacet
  facet normal 0 0 -1
    outer loop
      vertex -26.9129 -0.227166 0
      vertex -26.9129 0.227166 0
      vertex -26.8703 0.45075 0
    endloop
  endfacet
  facet normal 0 -0 -1
    outer loop
      vertex -26.9129 0.227166 0
      vertex -26.9129 -0.227166 0
      vertex -26.9272 0 0
    endloop
  endfacet
  facet normal 0.193775 -0.0121913 0.98097
    outer loop
      vertex 9.20874 0 14
      vertex 9.13612 -1.15416 14
      vertex 26.9272 0 10.5
    endloop
  endfacet
  facet normal 0.684545 0.72897 -0
    outer loop
      vertex 26.436 1.24074 0
      vertex 26.2701 1.39655 10.5
      vertex 26.436 1.24074 10.5
    endloop
  endfacet
  facet normal 0.684545 0.72897 0
    outer loop
      vertex 26.2701 1.39655 10.5
      vertex 26.436 1.24074 0
      vertex 26.2701 1.39655 0
    endloop
  endfacet
  facet normal 0 1 -0
    outer loop
      vertex 0.578221 9.19057 0
      vertex -0.578221 9.19057 14
      vertex 0.578221 9.19057 14
    endloop
  endfacet
  facet normal 0 1 0
    outer loop
      vertex -0.578221 9.19057 14
      vertex 0.578221 9.19057 0
      vertex -0.578221 9.19057 0
    endloop
  endfacet
  facet normal 0.287048 0.522139 0.803103
    outer loop
      vertex 26.0859 1.53034 10.5
      vertex 3.92089 8.33231 14
      vertex 4.93429 7.77519 14
    endloop
  endfacet
  facet normal 0.770516 -0.637421 0
    outer loop
      vertex 26.436 -1.24074 10.5
      vertex 26.5811 -1.06536 0
      vertex 26.5811 -1.06536 10.5
    endloop
  endfacet
  facet normal 0.770516 -0.637421 0
    outer loop
      vertex 26.5811 -1.06536 0
      vertex 26.436 -1.24074 10.5
      vertex 26.436 -1.24074 0
    endloop
  endfacet
  facet normal 0.19491 0.037181 0.980116
    outer loop
      vertex 26.8703 0.45075 10.5
      vertex 8.91943 2.29012 14
      vertex 9.13612 1.15416 14
    endloop
  endfacet
  facet normal 0.125333 0.992115 -0
    outer loop
      vertex 1.72554 9.04562 0
      vertex 0.578221 9.19057 14
      vertex 1.72554 9.04562 14
    endloop
  endfacet
  facet normal 0.125333 0.992115 0
    outer loop
      vertex 0.578221 9.19057 14
      vertex 1.72554 9.04562 0
      vertex 0.578221 9.19057 0
    endloop
  endfacet
  facet normal 0.201239 -0.0946956 0.974954
    outer loop
      vertex 8.56207 -3.38996 14
      vertex 8.06968 -4.43634 14
      vertex 26.8 -0.667225 10.5
    endloop
  endfacet
  facet normal 0.197304 -0.0641079 0.978244
    outer loop
      vertex 8.91943 -2.29012 14
      vertex 8.56207 -3.38996 14
      vertex 26.8703 -0.45075 10.5
    endloop
  endfacet
  facet normal 0 0 1
    outer loop
      vertex 8.37158 0 14
      vertex 9.20874 0 14
      vertex 9.13612 1.15416 14
    endloop
  endfacet
  facet normal 0 0 1
    outer loop
      vertex 8.37158 0 14
      vertex 9.13612 1.15416 14
      vertex 8.91943 2.29012 14
    endloop
  endfacet
  facet normal 0 0 1
    outer loop
      vertex 9.20874 0 14
      vertex 8.37158 0 14
      vertex 9.13612 -1.15416 14
    endloop
  endfacet
  facet normal 0 0 1
    outer loop
      vertex 8.37158 0 14
      vertex 8.91943 2.29012 14
      vertex 8.56207 3.38996 14
    endloop
  endfacet
  facet normal 0 0 1
    outer loop
      vertex 9.13612 -1.15416 14
      vertex 8.37158 0 14
      vertex 8.91943 -2.29012 14
    endloop
  endfacet
  facet normal 0 0 1
    outer loop
      vertex 8.91943 -2.29012 14
      vertex 8.37158 0 14
      vertex 8.56207 -3.38996 14
    endloop
  endfacet
  facet normal 0 0 1
    outer loop
      vertex 8.06968 4.43634 14
      vertex 8.37158 0 14
      vertex 8.56207 3.38996 14
    endloop
  endfacet
  facet normal 0 0 1
    outer loop
      vertex 4.18579 7.25 14
      vertex 8.06968 4.43634 14
      vertex 7.45002 5.41276 14
    endloop
  endfacet
  facet normal 0 0 1
    outer loop
      vertex 4.18579 7.25 14
      vertex 7.45002 5.41276 14
      vertex 6.71288 6.30381 14
    endloop
  endfacet
  facet normal 0 0 1
    outer loop
      vertex 4.18579 7.25 14
      vertex 6.71288 6.30381 14
      vertex 5.86987 7.09545 14
    endloop
  endfacet
  facet normal -0 0 1
    outer loop
      vertex 4.18579 7.25 14
      vertex 5.86987 7.09545 14
      vertex 4.93429 7.77519 14
    endloop
  endfacet
  facet normal 0 0 1
    outer loop
      vertex 8.06968 4.43634 14
      vertex 4.18579 7.25 14
      vertex 8.37158 0 14
    endloop
  endfacet
  facet normal 0 0 1
    outer loop
      vertex 3.92089 8.33231 14
      vertex 4.18579 7.25 14
      vertex 4.93429 7.77519 14
    endloop
  endfacet
  facet normal 0 0 1
    outer loop
      vertex 2.84566 8.75803 14
      vertex 4.18579 7.25 14
      vertex 3.92089 8.33231 14
    endloop
  endfacet
  facet normal 0 0 1
    outer loop
      vertex 1.72554 9.04562 14
      vertex 4.18579 7.25 14
      vertex 2.84566 8.75803 14
    endloop
  endfacet
  facet normal 0 0 1
    outer loop
      vertex 0.578221 9.19057 14
      vertex 4.18579 7.25 14
      vertex 1.72554 9.04562 14
    endloop
  endfacet
  facet normal -0 0 1
    outer loop
      vertex -0.578221 9.19057 14
      vertex 4.18579 7.25 14
      vertex 0.578221 9.19057 14
    endloop
  endfacet
  facet normal 0 0 1
    outer loop
      vertex -4.18579 7.25 14
      vertex -0.578221 9.19057 14
      vertex -1.72554 9.04562 14
    endloop
  endfacet
  facet normal 0 0 1
    outer loop
      vertex -4.18579 7.25 14
      vertex -1.72554 9.04562 14
      vertex -2.84566 8.75803 14
    endloop
  endfacet
  facet normal 0 0 1
    outer loop
      vertex -4.18579 7.25 14
      vertex -2.84566 8.75803 14
      vertex -3.92089 8.33231 14
    endloop
  endfacet
  facet normal 0 0 1
    outer loop
      vertex -0.578221 9.19057 14
      vertex -4.18579 7.25 14
      vertex 4.18579 7.25 14
    endloop
  endfacet
  facet normal -0 0 1
    outer loop
      vertex -4.93429 7.77519 14
      vertex -4.18579 7.25 14
      vertex -3.92089 8.33231 14
    endloop
  endfacet
  facet normal 0 0 1
    outer loop
      vertex -5.86987 7.09545 14
      vertex -4.18579 7.25 14
      vertex -4.93429 7.77519 14
    endloop
  endfacet
  facet normal 0 0 1
    outer loop
      vertex -6.71288 6.30381 14
      vertex -4.18579 7.25 14
      vertex -5.86987 7.09545 14
    endloop
  endfacet
  facet normal 0 0 1
    outer loop
      vertex -7.45002 5.41276 14
      vertex -4.18579 7.25 14
      vertex -6.71288 6.30381 14
    endloop
  endfacet
  facet normal 0 0 1
    outer loop
      vertex -8.06968 4.43634 14
      vertex -4.18579 7.25 14
      vertex -7.45002 5.41276 14
    endloop
  endfacet
  facet normal -0 0 1
    outer loop
      vertex -8.06968 4.43634 14
      vertex -8.37158 0 14
      vertex -4.18579 7.25 14
    endloop
  endfacet
  facet normal 0 -0 1
    outer loop
      vertex -8.37158 0 14
      vertex -8.06968 4.43634 14
      vertex -8.56207 3.38996 14
    endloop
  endfacet
  facet normal 0 0 1
    outer loop
      vertex 8.37158 0 14
      vertex 8.06968 -4.43634 14
      vertex 8.56207 -3.38996 14
    endloop
  endfacet
  facet normal 0 0 1
    outer loop
      vertex 4.18579 -7.25 14
      vertex 8.06968 -4.43634 14
      vertex 8.37158 0 14
    endloop
  endfacet
  facet normal 0 0 1
    outer loop
      vertex 8.06968 -4.43634 14
      vertex 4.18579 -7.25 14
      vertex 7.45002 -5.41276 14
    endloop
  endfacet
  facet normal 0 0 1
    outer loop
      vertex 7.45002 -5.41276 14
      vertex 4.18579 -7.25 14
      vertex 6.71288 -6.30381 14
    endloop
  endfacet
  facet normal 0 0 1
    outer loop
      vertex 6.71288 -6.30381 14
      vertex 4.18579 -7.25 14
      vertex 5.86987 -7.09545 14
    endloop
  endfacet
  facet normal 0 0 1
    outer loop
      vertex 5.86987 -7.09545 14
      vertex 4.18579 -7.25 14
      vertex 4.93429 -7.77519 14
    endloop
  endfacet
  facet normal 0 0 1
    outer loop
      vertex 4.18579 -7.25 14
      vertex 3.92089 -8.33231 14
      vertex 4.93429 -7.77519 14
    endloop
  endfacet
  facet normal 0 0 1
    outer loop
      vertex 4.18579 -7.25 14
      vertex 2.84566 -8.75803 14
      vertex 3.92089 -8.33231 14
    endloop
  endfacet
  facet normal 0 0 1
    outer loop
      vertex 4.18579 -7.25 14
      vertex 1.72554 -9.04562 14
      vertex 2.84566 -8.75803 14
    endloop
  endfacet
  facet normal 0 0 1
    outer loop
      vertex 4.18579 -7.25 14
      vertex 0.578221 -9.19057 14
      vertex 1.72554 -9.04562 14
    endloop
  endfacet
  facet normal 0 0 1
    outer loop
      vertex 4.18579 -7.25 14
      vertex -0.578221 -9.19057 14
      vertex 0.578221 -9.19057 14
    endloop
  endfacet
  facet normal -0 0 1
    outer loop
      vertex -4.18579 -7.25 14
      vertex -0.578221 -9.19057 14
      vertex 4.18579 -7.25 14
    endloop
  endfacet
  facet normal 0 0 1
    outer loop
      vertex -0.578221 -9.19057 14
      vertex -4.18579 -7.25 14
      vertex -1.72554 -9.04562 14
    endloop
  endfacet
  facet normal 0 0 1
    outer loop
      vertex -1.72554 -9.04562 14
      vertex -4.18579 -7.25 14
      vertex -2.84566 -8.75803 14
    endloop
  endfacet
  facet normal 0 0 1
    outer loop
      vertex -2.84566 -8.75803 14
      vertex -4.18579 -7.25 14
      vertex -3.92089 -8.33231 14
    endloop
  endfacet
  facet normal 0 0 1
    outer loop
      vertex -4.18579 -7.25 14
      vertex -4.93429 -7.77519 14
      vertex -3.92089 -8.33231 14
    endloop
  endfacet
  facet normal 0 0 1
    outer loop
      vertex -4.18579 -7.25 14
      vertex -5.86987 -7.09545 14
      vertex -4.93429 -7.77519 14
    endloop
  endfacet
  facet normal 0 0 1
    outer loop
      vertex -4.18579 -7.25 14
      vertex -6.71288 -6.30381 14
      vertex -5.86987 -7.09545 14
    endloop
  endfacet
  facet normal 0 0 1
    outer loop
      vertex -4.18579 -7.25 14
      vertex -7.45002 -5.41276 14
      vertex -6.71288 -6.30381 14
    endloop
  endfacet
  facet normal 0 0 1
    outer loop
      vertex -4.18579 -7.25 14
      vertex -8.06968 -4.43634 14
      vertex -7.45002 -5.41276 14
    endloop
  endfacet
  facet normal 0 0 1
    outer loop
      vertex -8.37158 0 14
      vertex -8.06968 -4.43634 14
      vertex -4.18579 -7.25 14
    endloop
  endfacet
  facet normal 0 0 1
    outer loop
      vertex -8.37158 0 14
      vertex -8.56207 -3.38996 14
      vertex -8.06968 -4.43634 14
    endloop
  endfacet
  facet normal -0 0 1
    outer loop
      vertex -8.91943 2.29012 14
      vertex -8.37158 0 14
      vertex -8.56207 3.38996 14
    endloop
  endfacet
  facet normal -0 0 1
    outer loop
      vertex -9.13612 1.15416 14
      vertex -8.37158 0 14
      vertex -8.91943 2.29012 14
    endloop
  endfacet
  facet normal 0 0 1
    outer loop
      vertex -8.37158 0 14
      vertex -8.91943 -2.29012 14
      vertex -8.56207 -3.38996 14
    endloop
  endfacet
  facet normal 0 0 1
    outer loop
      vertex -9.20874 0 14
      vertex -8.37158 0 14
      vertex -9.13612 1.15416 14
    endloop
  endfacet
  facet normal 0 0 1
    outer loop
      vertex -8.37158 0 14
      vertex -9.13612 -1.15416 14
      vertex -8.91943 -2.29012 14
    endloop
  endfacet
  facet normal 0 0 1
    outer loop
      vertex -8.37158 0 14
      vertex -9.20874 0 14
      vertex -9.13612 -1.15416 14
    endloop
  endfacet
  facet normal 0.844329 0.535825 0
    outer loop
      vertex 26.703 0.873178 10.5
      vertex 26.5811 1.06536 0
      vertex 26.5811 1.06536 10.5
    endloop
  endfacet
  facet normal 0.844329 0.535825 0
    outer loop
      vertex 26.5811 1.06536 0
      vertex 26.703 0.873178 10.5
      vertex 26.703 0.873178 0
    endloop
  endfacet
  facet normal 0.216249 0.178896 0.959809
    outer loop
      vertex 26.436 1.24074 10.5
      vertex 6.71288 6.30381 14
      vertex 7.45002 5.41276 14
    endloop
  endfacet
  facet normal 0.201239 0.0946977 0.974954
    outer loop
      vertex 26.703 0.873178 10.5
      vertex 8.06968 4.43634 14
      vertex 26.8 0.667225 10.5
    endloop
  endfacet
  facet normal 0.197304 0.0641079 0.978244
    outer loop
      vertex 26.8703 0.45075 10.5
      vertex 8.56207 3.38996 14
      vertex 8.91943 2.29012 14
    endloop
  endfacet
  facet normal 0.287048 0.52214 0.803102
    outer loop
      vertex 25.8865 1.64 10.5
      vertex 3.92089 8.33231 14
      vertex 26.0859 1.53034 10.5
    endloop
  endfacet
  facet normal 0.998027 -0.0627891 0
    outer loop
      vertex 26.9129 -0.227166 10.5
      vertex 26.9272 0 0
      vertex 26.9272 0 10.5
    endloop
  endfacet
  facet normal 0.998027 -0.0627891 0
    outer loop
      vertex 26.9272 0 0
      vertex 26.9129 -0.227166 10.5
      vertex 26.9129 -0.227166 0
    endloop
  endfacet
  facet normal 0.982286 -0.187386 0
    outer loop
      vertex 26.8703 -0.45075 10.5
      vertex 26.9129 -0.227166 0
      vertex 26.9129 -0.227166 10.5
    endloop
  endfacet
  facet normal 0.982286 -0.187386 0
    outer loop
      vertex 26.9129 -0.227166 0
      vertex 26.8703 -0.45075 10.5
      vertex 26.8703 -0.45075 0
    endloop
  endfacet
  facet normal 0.19491 -0.037182 0.980116
    outer loop
      vertex 26.9129 -0.227166 10.5
      vertex 9.13612 -1.15416 14
      vertex 26.8703 -0.45075 10.5
    endloop
  endfacet
  facet normal 0.207239 -0.131518 0.96941
    outer loop
      vertex 8.06968 -4.43634 14
      vertex 7.45002 -5.41276 14
      vertex 26.703 -0.873178 10.5
    endloop
  endfacet
  facet normal 0.230018 -0.244946 0.941856
    outer loop
      vertex 26.436 -1.24074 10.5
      vertex 6.71288 -6.30381 14
      vertex 26.2701 -1.39655 10.5
    endloop
  endfacet
  facet normal 0.844329 -0.535825 0
    outer loop
      vertex 26.5811 -1.06536 10.5
      vertex 26.703 -0.873178 0
      vertex 26.703 -0.873178 10.5
    endloop
  endfacet
  facet normal 0.844329 -0.535825 0
    outer loop
      vertex 26.703 -0.873178 0
      vertex 26.5811 -1.06536 10.5
      vertex 26.5811 -1.06536 0
    endloop
  endfacet
  facet normal 0.294464 -0.955663 0
    outer loop
      vertex 2.84566 -8.75803 0
      vertex 25.6748 -1.72379 10.5
      vertex 2.84566 -8.75803 14
    endloop
  endfacet
  facet normal 0.294464 -0.955663 0
    outer loop
      vertex 25.6748 -1.72379 10.5
      vertex 2.84566 -8.75803 0
      vertex 25.6748 -1.72379 0
    endloop
  endfacet
  facet normal 0.684545 -0.72897 0
    outer loop
      vertex 26.2701 -1.39655 0
      vertex 26.436 -1.24074 10.5
      vertex 26.2701 -1.39655 10.5
    endloop
  endfacet
  facet normal 0.684545 -0.72897 0
    outer loop
      vertex 26.436 -1.24074 10.5
      vertex 26.2701 -1.39655 0
      vertex 26.436 -1.24074 0
    endloop
  endfacet
  facet normal 0.587785 -0.809017 0
    outer loop
      vertex 26.0859 -1.53034 0
      vertex 26.2701 -1.39655 10.5
      vertex 26.0859 -1.53034 10.5
    endloop
  endfacet
  facet normal 0.587785 -0.809017 0
    outer loop
      vertex 26.2701 -1.39655 10.5
      vertex 26.0859 -1.53034 0
      vertex 26.2701 -1.39655 0
    endloop
  endfacet
  facet normal -0.125333 -0.992115 0
    outer loop
      vertex -1.72554 -9.04562 0
      vertex -0.578221 -9.19057 14
      vertex -1.72554 -9.04562 14
    endloop
  endfacet
  facet normal -0.125333 -0.992115 -0
    outer loop
      vertex -0.578221 -9.19057 14
      vertex -1.72554 -9.04562 0
      vertex -0.578221 -9.19057 0
    endloop
  endfacet
  facet normal 0 -1 0
    outer loop
      vertex -0.578221 -9.19057 0
      vertex 0.578221 -9.19057 14
      vertex -0.578221 -9.19057 14
    endloop
  endfacet
  facet normal 0 -1 -0
    outer loop
      vertex 0.578221 -9.19057 14
      vertex -0.578221 -9.19057 0
      vertex 0.578221 -9.19057 0
    endloop
  endfacet
  facet normal 0.193775 0.0121913 0.98097
    outer loop
      vertex 26.9272 0 10.5
      vertex 9.13612 1.15416 14
      vertex 9.20874 0 14
    endloop
  endfacet
  facet normal -0.125333 0.992115 0
    outer loop
      vertex -0.578221 9.19057 0
      vertex -1.72554 9.04562 14
      vertex -0.578221 9.19057 14
    endloop
  endfacet
  facet normal -0.125333 0.992115 0
    outer loop
      vertex -1.72554 9.04562 14
      vertex -0.578221 9.19057 0
      vertex -1.72554 9.04562 0
    endloop
  endfacet
  facet normal -0.24869 0.968583 0
    outer loop
      vertex -1.72554 9.04562 0
      vertex -2.84566 8.75803 14
      vertex -1.72554 9.04562 14
    endloop
  endfacet
  facet normal -0.24869 0.968583 0
    outer loop
      vertex -2.84566 8.75803 14
      vertex -1.72554 9.04562 0
      vertex -2.84566 8.75803 0
    endloop
  endfacet
  facet normal 0.193775 0.012191 0.98097
    outer loop
      vertex 26.9129 0.227166 10.5
      vertex 9.13612 1.15416 14
      vertex 26.9272 0 10.5
    endloop
  endfacet
  facet normal 0.294464 0.955663 0
    outer loop
      vertex 2.84566 8.75803 0
      vertex 25.6748 1.72379 10.5
      vertex 25.6748 1.72379 0
    endloop
  endfacet
  facet normal 0.294464 0.955663 0
    outer loop
      vertex 25.6748 1.72379 10.5
      vertex 2.84566 8.75803 0
      vertex 2.84566 8.75803 14
    endloop
  endfacet
  facet normal 0.32493 0.820681 0.470004
    outer loop
      vertex 25.6748 1.72379 10.5
      vertex 2.84566 8.75803 14
      vertex 25.8865 1.64 10.5
    endloop
  endfacet
  facet normal 0.19491 0.037182 0.980116
    outer loop
      vertex 26.8703 0.45075 10.5
      vertex 9.13612 1.15416 14
      vertex 26.9129 0.227166 10.5
    endloop
  endfacet
  facet normal 0.587785 0.809017 -0
    outer loop
      vertex 26.2701 1.39655 0
      vertex 26.0859 1.53034 10.5
      vertex 26.2701 1.39655 10.5
    endloop
  endfacet
  facet normal 0.587785 0.809017 0
    outer loop
      vertex 26.0859 1.53034 10.5
      vertex 26.2701 1.39655 0
      vertex 26.0859 1.53034 0
    endloop
  endfacet
  facet normal 0.251858 0.346654 0.903548
    outer loop
      vertex 26.0859 1.53034 10.5
      vertex 4.93429 7.77519 14
      vertex 26.2701 1.39655 10.5
    endloop
  endfacet
  facet normal 0.19491 -0.037181 0.980116
    outer loop
      vertex 9.13612 -1.15416 14
      vertex 8.91943 -2.29012 14
      vertex 26.8703 -0.45075 10.5
    endloop
  endfacet
  facet normal 0.193775 -0.012191 0.98097
    outer loop
      vertex 26.9272 0 10.5
      vertex 9.13612 -1.15416 14
      vertex 26.9129 -0.227166 10.5
    endloop
  endfacet
  facet normal 0.207238 -0.131517 0.96941
    outer loop
      vertex 26.703 -0.873178 10.5
      vertex 7.45002 -5.41276 14
      vertex 26.5811 -1.06536 10.5
    endloop
  endfacet
  facet normal 0.201239 -0.0946977 0.974954
    outer loop
      vertex 26.8 -0.667225 10.5
      vertex 8.06968 -4.43634 14
      vertex 26.703 -0.873178 10.5
    endloop
  endfacet
  facet normal 0.287048 -0.522139 0.803103
    outer loop
      vertex 4.93429 -7.77519 14
      vertex 3.92089 -8.33231 14
      vertex 26.0859 -1.53034 10.5
    endloop
  endfacet
  facet normal 0.230018 -0.244944 0.941857
    outer loop
      vertex 6.71288 -6.30381 14
      vertex 5.86987 -7.09545 14
      vertex 26.2701 -1.39655 10.5
    endloop
  endfacet
  facet normal 0.251858 -0.346654 0.903548
    outer loop
      vertex 26.2701 -1.39655 10.5
      vertex 4.93429 -7.77519 14
      vertex 26.0859 -1.53034 10.5
    endloop
  endfacet
  facet normal 0.481753 -0.876307 0
    outer loop
      vertex 25.8865 -1.64 0
      vertex 26.0859 -1.53034 10.5
      vertex 25.8865 -1.64 10.5
    endloop
  endfacet
  facet normal 0.481753 -0.876307 0
    outer loop
      vertex 26.0859 -1.53034 10.5
      vertex 25.8865 -1.64 0
      vertex 26.0859 -1.53034 0
    endloop
  endfacet
  facet normal 0.904824 -0.425786 0
    outer loop
      vertex 26.703 -0.873178 10.5
      vertex 26.8 -0.667225 0
      vertex 26.8 -0.667225 10.5
    endloop
  endfacet
  facet normal 0.904824 -0.425786 0
    outer loop
      vertex 26.8 -0.667225 0
      vertex 26.703 -0.873178 10.5
      vertex 26.703 -0.873178 0
    endloop
  endfacet
  facet normal 0.125333 -0.992115 0
    outer loop
      vertex 0.578221 -9.19057 0
      vertex 1.72554 -9.04562 14
      vertex 0.578221 -9.19057 14
    endloop
  endfacet
  facet normal 0.125333 -0.992115 0
    outer loop
      vertex 1.72554 -9.04562 14
      vertex 0.578221 -9.19057 0
      vertex 1.72554 -9.04562 0
    endloop
  endfacet
  facet normal 0.287048 -0.52214 0.803102
    outer loop
      vertex 26.0859 -1.53034 10.5
      vertex 3.92089 -8.33231 14
      vertex 25.8865 -1.64 10.5
    endloop
  endfacet
  facet normal 0.216248 -0.178895 0.959809
    outer loop
      vertex 26.5811 -1.06536 10.5
      vertex 7.45002 -5.41276 14
      vertex 26.436 -1.24074 10.5
    endloop
  endfacet
  facet normal 0.216249 -0.178896 0.959809
    outer loop
      vertex 7.45002 -5.41276 14
      vertex 6.71288 -6.30381 14
      vertex 26.436 -1.24074 10.5
    endloop
  endfacet
  facet normal 0.368124 -0.929777 0
    outer loop
      vertex 25.6748 -1.72379 0
      vertex 25.8865 -1.64 10.5
      vertex 25.6748 -1.72379 10.5
    endloop
  endfacet
  facet normal 0.368124 -0.929777 0
    outer loop
      vertex 25.8865 -1.64 10.5
      vertex 25.6748 -1.72379 0
      vertex 25.8865 -1.64 0
    endloop
  endfacet
  facet normal -0.24869 -0.968583 0
    outer loop
      vertex -2.84566 -8.75803 0
      vertex -1.72554 -9.04562 14
      vertex -2.84566 -8.75803 14
    endloop
  endfacet
  facet normal -0.24869 -0.968583 -0
    outer loop
      vertex -1.72554 -9.04562 14
      vertex -2.84566 -8.75803 0
      vertex -1.72554 -9.04562 0
    endloop
  endfacet
  facet normal 0.982286 0.187386 0
    outer loop
      vertex 26.9129 0.227166 10.5
      vertex 26.8703 0.45075 0
      vertex 26.8703 0.45075 10.5
    endloop
  endfacet
  facet normal 0.982286 0.187386 0
    outer loop
      vertex 26.8703 0.45075 0
      vertex 26.9129 0.227166 10.5
      vertex 26.9129 0.227166 0
    endloop
  endfacet
  facet normal 0.998027 0.0627891 0
    outer loop
      vertex 26.9272 0 10.5
      vertex 26.9129 0.227166 0
      vertex 26.9129 0.227166 10.5
    endloop
  endfacet
  facet normal 0.998027 0.0627891 0
    outer loop
      vertex 26.9129 0.227166 0
      vertex 26.9272 0 10.5
      vertex 26.9272 0 0
    endloop
  endfacet
  facet normal 0.201239 0.0946956 0.974954
    outer loop
      vertex 26.8 0.667225 10.5
      vertex 8.06968 4.43634 14
      vertex 8.56207 3.38996 14
    endloop
  endfacet
  facet normal 0.24869 0.968583 -0
    outer loop
      vertex 2.84566 8.75803 0
      vertex 1.72554 9.04562 14
      vertex 2.84566 8.75803 14
    endloop
  endfacet
  facet normal 0.24869 0.968583 0
    outer loop
      vertex 1.72554 9.04562 14
      vertex 2.84566 8.75803 0
      vertex 1.72554 9.04562 0
    endloop
  endfacet
  facet normal 0.251858 0.346653 0.903548
    outer loop
      vertex 26.2701 1.39655 10.5
      vertex 4.93429 7.77519 14
      vertex 5.86987 7.09545 14
    endloop
  endfacet
  facet normal 0.230018 0.244944 0.941857
    outer loop
      vertex 26.2701 1.39655 10.5
      vertex 5.86987 7.09545 14
      vertex 6.71288 6.30381 14
    endloop
  endfacet
  facet normal 0.216248 0.178895 0.959809
    outer loop
      vertex 26.436 1.24074 10.5
      vertex 7.45002 5.41276 14
      vertex 26.5811 1.06536 10.5
    endloop
  endfacet
  facet normal 0.770516 0.637421 0
    outer loop
      vertex 26.5811 1.06536 10.5
      vertex 26.436 1.24074 0
      vertex 26.436 1.24074 10.5
    endloop
  endfacet
  facet normal 0.770516 0.637421 0
    outer loop
      vertex 26.436 1.24074 0
      vertex 26.5811 1.06536 10.5
      vertex 26.5811 1.06536 0
    endloop
  endfacet
  facet normal 0.32493 0.820678 0.470009
    outer loop
      vertex 25.8865 1.64 10.5
      vertex 2.84566 8.75803 14
      vertex 3.92089 8.33231 14
    endloop
  endfacet
  facet normal 0.951058 -0.309011 0
    outer loop
      vertex 26.8 -0.667225 10.5
      vertex 26.8703 -0.45075 0
      vertex 26.8703 -0.45075 10.5
    endloop
  endfacet
  facet normal 0.951058 -0.309011 0
    outer loop
      vertex 26.8703 -0.45075 0
      vertex 26.8 -0.667225 10.5
      vertex 26.8 -0.667225 0
    endloop
  endfacet
  facet normal 0.197303 -0.0641065 0.978244
    outer loop
      vertex 26.8703 -0.45075 10.5
      vertex 8.56207 -3.38996 14
      vertex 26.8 -0.667225 10.5
    endloop
  endfacet
  facet normal 0.251858 -0.346653 0.903548
    outer loop
      vertex 5.86987 -7.09545 14
      vertex 4.93429 -7.77519 14
      vertex 26.2701 -1.39655 10.5
    endloop
  endfacet
  facet normal 0.24869 -0.968583 0
    outer loop
      vertex 1.72554 -9.04562 0
      vertex 2.84566 -8.75803 14
      vertex 1.72554 -9.04562 14
    endloop
  endfacet
  facet normal 0.24869 -0.968583 0
    outer loop
      vertex 2.84566 -8.75803 14
      vertex 1.72554 -9.04562 0
      vertex 2.84566 -8.75803 0
    endloop
  endfacet
  facet normal 0.32493 -0.820678 0.470009
    outer loop
      vertex 3.92089 -8.33231 14
      vertex 2.84566 -8.75803 14
      vertex 25.8865 -1.64 10.5
    endloop
  endfacet
  facet normal 0.32493 -0.820681 0.470004
    outer loop
      vertex 25.8865 -1.64 10.5
      vertex 2.84566 -8.75803 14
      vertex 25.6748 -1.72379 10.5
    endloop
  endfacet
  facet normal 0.197303 0.0641065 0.978244
    outer loop
      vertex 26.8 0.667225 10.5
      vertex 8.56207 3.38996 14
      vertex 26.8703 0.45075 10.5
    endloop
  endfacet
  facet normal 0.904824 0.425786 0
    outer loop
      vertex 26.8 0.667225 10.5
      vertex 26.703 0.873178 0
      vertex 26.703 0.873178 10.5
    endloop
  endfacet
  facet normal 0.904824 0.425786 0
    outer loop
      vertex 26.703 0.873178 0
      vertex 26.8 0.667225 10.5
      vertex 26.8 0.667225 0
    endloop
  endfacet
  facet normal 0.951058 0.309011 0
    outer loop
      vertex 26.8703 0.45075 10.5
      vertex 26.8 0.667225 0
      vertex 26.8 0.667225 10.5
    endloop
  endfacet
  facet normal 0.951058 0.309011 0
    outer loop
      vertex 26.8 0.667225 0
      vertex 26.8703 0.45075 10.5
      vertex 26.8703 0.45075 0
    endloop
  endfacet
  facet normal 0.207238 0.131517 0.96941
    outer loop
      vertex 26.5811 1.06536 10.5
      vertex 7.45002 5.41276 14
      vertex 26.703 0.873178 10.5
    endloop
  endfacet
  facet normal 0.207239 0.131518 0.96941
    outer loop
      vertex 26.703 0.873178 10.5
      vertex 7.45002 5.41276 14
      vertex 8.06968 4.43634 14
    endloop
  endfacet
  facet normal 0.230018 0.244946 0.941856
    outer loop
      vertex 26.2701 1.39655 10.5
      vertex 6.71288 6.30381 14
      vertex 26.436 1.24074 10.5
    endloop
  endfacet
  facet normal 0.481753 0.876307 -0
    outer loop
      vertex 26.0859 1.53034 0
      vertex 25.8865 1.64 10.5
      vertex 26.0859 1.53034 10.5
    endloop
  endfacet
  facet normal 0.481753 0.876307 0
    outer loop
      vertex 25.8865 1.64 10.5
      vertex 26.0859 1.53034 0
      vertex 25.8865 1.64 0
    endloop
  endfacet
  facet normal 0.368124 0.929777 -0
    outer loop
      vertex 25.8865 1.64 0
      vertex 25.6748 1.72379 10.5
      vertex 25.8865 1.64 10.5
    endloop
  endfacet
  facet normal 0.368124 0.929777 0
    outer loop
      vertex 25.6748 1.72379 10.5
      vertex 25.8865 1.64 0
      vertex 25.6748 1.72379 0
    endloop
  endfacet
  facet normal -0.904824 0.425786 0
    outer loop
      vertex -26.8 0.667225 0
      vertex -26.703 0.873178 10.5
      vertex -26.703 0.873178 0
    endloop
  endfacet
  facet normal -0.904824 0.425786 0
    outer loop
      vertex -26.703 0.873178 10.5
      vertex -26.8 0.667225 0
      vertex -26.8 0.667225 10.5
    endloop
  endfacet
  facet normal -0.193775 -0.012191 0.98097
    outer loop
      vertex -9.13612 -1.15416 14
      vertex -26.9272 0 10.5
      vertex -26.9129 -0.227166 10.5
    endloop
  endfacet
  facet normal -0.193775 -0.0121913 0.98097
    outer loop
      vertex -9.20874 0 14
      vertex -26.9272 0 10.5
      vertex -9.13612 -1.15416 14
    endloop
  endfacet
  facet normal -0.770516 0.637421 0
    outer loop
      vertex -26.5811 1.06536 0
      vertex -26.436 1.24074 10.5
      vertex -26.436 1.24074 0
    endloop
  endfacet
  facet normal -0.770516 0.637421 0
    outer loop
      vertex -26.436 1.24074 10.5
      vertex -26.5811 1.06536 0
      vertex -26.5811 1.06536 10.5
    endloop
  endfacet
  facet normal -0.294464 0.955663 0
    outer loop
      vertex -2.84566 8.75803 0
      vertex -25.6748 1.72379 10.5
      vertex -2.84566 8.75803 14
    endloop
  endfacet
  facet normal -0.294464 0.955663 0
    outer loop
      vertex -25.6748 1.72379 10.5
      vertex -2.84566 8.75803 0
      vertex -25.6748 1.72379 0
    endloop
  endfacet
  facet normal -0.216248 -0.178895 0.959809
    outer loop
      vertex -7.45002 -5.41276 14
      vertex -26.5811 -1.06536 10.5
      vertex -26.436 -1.24074 10.5
    endloop
  endfacet
  facet normal -0.197304 0.0641079 0.978244
    outer loop
      vertex -8.56207 3.38996 14
      vertex -26.8703 0.45075 10.5
      vertex -8.91943 2.29012 14
    endloop
  endfacet
  facet normal -0.684545 0.72897 0
    outer loop
      vertex -26.2701 1.39655 0
      vertex -26.436 1.24074 10.5
      vertex -26.2701 1.39655 10.5
    endloop
  endfacet
  facet normal -0.684545 0.72897 0
    outer loop
      vertex -26.436 1.24074 10.5
      vertex -26.2701 1.39655 0
      vertex -26.436 1.24074 0
    endloop
  endfacet
  facet normal -0.368124 0.929777 0
    outer loop
      vertex -25.6748 1.72379 0
      vertex -25.8865 1.64 10.5
      vertex -25.6748 1.72379 10.5
    endloop
  endfacet
  facet normal -0.368124 0.929777 0
    outer loop
      vertex -25.8865 1.64 10.5
      vertex -25.6748 1.72379 0
      vertex -25.8865 1.64 0
    endloop
  endfacet
  facet normal -0.998027 0.0627891 0
    outer loop
      vertex -26.9272 0 0
      vertex -26.9129 0.227166 10.5
      vertex -26.9129 0.227166 0
    endloop
  endfacet
  facet normal -0.998027 0.0627891 0
    outer loop
      vertex -26.9129 0.227166 10.5
      vertex -26.9272 0 0
      vertex -26.9272 0 10.5
    endloop
  endfacet
  facet normal -0.982286 0.187386 0
    outer loop
      vertex -26.9129 0.227166 0
      vertex -26.8703 0.45075 10.5
      vertex -26.8703 0.45075 0
    endloop
  endfacet
  facet normal -0.982286 0.187386 0
    outer loop
      vertex -26.8703 0.45075 10.5
      vertex -26.9129 0.227166 0
      vertex -26.9129 0.227166 10.5
    endloop
  endfacet
  facet normal -0.951058 0.309011 0
    outer loop
      vertex -26.8703 0.45075 0
      vertex -26.8 0.667225 10.5
      vertex -26.8 0.667225 0
    endloop
  endfacet
  facet normal -0.951058 0.309011 0
    outer loop
      vertex -26.8 0.667225 10.5
      vertex -26.8703 0.45075 0
      vertex -26.8703 0.45075 10.5
    endloop
  endfacet
  facet normal -0.201239 0.0946977 0.974954
    outer loop
      vertex -26.703 0.873178 10.5
      vertex -26.8 0.667225 10.5
      vertex -8.06968 4.43634 14
    endloop
  endfacet
  facet normal -0.587785 0.809017 0
    outer loop
      vertex -26.0859 1.53034 0
      vertex -26.2701 1.39655 10.5
      vertex -26.0859 1.53034 10.5
    endloop
  endfacet
  facet normal -0.587785 0.809017 0
    outer loop
      vertex -26.2701 1.39655 10.5
      vertex -26.0859 1.53034 0
      vertex -26.2701 1.39655 0
    endloop
  endfacet
  facet normal -0.216249 0.178896 0.959809
    outer loop
      vertex -6.71288 6.30381 14
      vertex -26.436 1.24074 10.5
      vertex -7.45002 5.41276 14
    endloop
  endfacet
  facet normal -0.216248 0.178895 0.959809
    outer loop
      vertex -26.436 1.24074 10.5
      vertex -26.5811 1.06536 10.5
      vertex -7.45002 5.41276 14
    endloop
  endfacet
  facet normal -0.197304 -0.0641079 0.978244
    outer loop
      vertex -8.91943 -2.29012 14
      vertex -26.8703 -0.45075 10.5
      vertex -8.56207 -3.38996 14
    endloop
  endfacet
  facet normal -0.216249 -0.178896 0.959809
    outer loop
      vertex -7.45002 -5.41276 14
      vertex -26.436 -1.24074 10.5
      vertex -6.71288 -6.30381 14
    endloop
  endfacet
  facet normal -0.19491 0.037182 0.980116
    outer loop
      vertex -26.8703 0.45075 10.5
      vertex -26.9129 0.227166 10.5
      vertex -9.13612 1.15416 14
    endloop
  endfacet
  facet normal -0.481753 0.876307 0
    outer loop
      vertex -25.8865 1.64 0
      vertex -26.0859 1.53034 10.5
      vertex -25.8865 1.64 10.5
    endloop
  endfacet
  facet normal -0.481753 0.876307 0
    outer loop
      vertex -26.0859 1.53034 10.5
      vertex -25.8865 1.64 0
      vertex -26.0859 1.53034 0
    endloop
  endfacet
  facet normal -0.844329 0.535825 0
    outer loop
      vertex -26.703 0.873178 0
      vertex -26.5811 1.06536 10.5
      vertex -26.5811 1.06536 0
    endloop
  endfacet
  facet normal -0.844329 0.535825 0
    outer loop
      vertex -26.5811 1.06536 10.5
      vertex -26.703 0.873178 0
      vertex -26.703 0.873178 10.5
    endloop
  endfacet
  facet normal -0.19491 -0.037181 0.980116
    outer loop
      vertex -9.13612 -1.15416 14
      vertex -26.8703 -0.45075 10.5
      vertex -8.91943 -2.29012 14
    endloop
  endfacet
  facet normal -0.998027 -0.0627891 0
    outer loop
      vertex -26.9129 -0.227166 0
      vertex -26.9272 0 10.5
      vertex -26.9272 0 0
    endloop
  endfacet
  facet normal -0.998027 -0.0627891 0
    outer loop
      vertex -26.9272 0 10.5
      vertex -26.9129 -0.227166 0
      vertex -26.9129 -0.227166 10.5
    endloop
  endfacet
  facet normal -0.294464 -0.955663 0
    outer loop
      vertex -2.84566 -8.75803 0
      vertex -25.6748 -1.72379 10.5
      vertex -25.6748 -1.72379 0
    endloop
  endfacet
  facet normal -0.294464 -0.955663 0
    outer loop
      vertex -25.6748 -1.72379 10.5
      vertex -2.84566 -8.75803 0
      vertex -2.84566 -8.75803 14
    endloop
  endfacet
  facet normal -0.32493 -0.820681 0.470004
    outer loop
      vertex -2.84566 -8.75803 14
      vertex -25.8865 -1.64 10.5
      vertex -25.6748 -1.72379 10.5
    endloop
  endfacet
  facet normal -0.230018 0.244944 0.941857
    outer loop
      vertex -5.86987 7.09545 14
      vertex -26.2701 1.39655 10.5
      vertex -6.71288 6.30381 14
    endloop
  endfacet
  facet normal -0.230018 0.244946 0.941856
    outer loop
      vertex -26.2701 1.39655 10.5
      vertex -26.436 1.24074 10.5
      vertex -6.71288 6.30381 14
    endloop
  endfacet
  facet normal -0.207239 0.131518 0.96941
    outer loop
      vertex -7.45002 5.41276 14
      vertex -26.703 0.873178 10.5
      vertex -8.06968 4.43634 14
    endloop
  endfacet
  facet normal -0.207238 0.131517 0.96941
    outer loop
      vertex -26.5811 1.06536 10.5
      vertex -26.703 0.873178 10.5
      vertex -7.45002 5.41276 14
    endloop
  endfacet
  facet normal -0.19491 0.037181 0.980116
    outer loop
      vertex -8.91943 2.29012 14
      vertex -26.8703 0.45075 10.5
      vertex -9.13612 1.15416 14
    endloop
  endfacet
  facet normal -0.207239 -0.131518 0.96941
    outer loop
      vertex -8.06968 -4.43634 14
      vertex -26.703 -0.873178 10.5
      vertex -7.45002 -5.41276 14
    endloop
  endfacet
  facet normal -0.251858 -0.346653 0.903548
    outer loop
      vertex -5.86987 -7.09545 14
      vertex -26.2701 -1.39655 10.5
      vertex -4.93429 -7.77519 14
    endloop
  endfacet
  facet normal -0.32493 -0.820678 0.470009
    outer loop
      vertex -3.92089 -8.33231 14
      vertex -25.8865 -1.64 10.5
      vertex -2.84566 -8.75803 14
    endloop
  endfacet
  facet normal -0.32493 0.820678 0.470009
    outer loop
      vertex -2.84566 8.75803 14
      vertex -25.8865 1.64 10.5
      vertex -3.92089 8.33231 14
    endloop
  endfacet
  facet normal -0.193775 0.012191 0.98097
    outer loop
      vertex -26.9129 0.227166 10.5
      vertex -26.9272 0 10.5
      vertex -9.13612 1.15416 14
    endloop
  endfacet
  facet normal -0.193775 0.0121913 0.98097
    outer loop
      vertex -9.13612 1.15416 14
      vertex -26.9272 0 10.5
      vertex -9.20874 0 14
    endloop
  endfacet
  facet normal -0.982286 -0.187386 0
    outer loop
      vertex -26.8703 -0.45075 0
      vertex -26.9129 -0.227166 10.5
      vertex -26.9129 -0.227166 0
    endloop
  endfacet
  facet normal -0.982286 -0.187386 0
    outer loop
      vertex -26.9129 -0.227166 10.5
      vertex -26.8703 -0.45075 0
      vertex -26.8703 -0.45075 10.5
    endloop
  endfacet
  facet normal -0.19491 -0.037182 0.980116
    outer loop
      vertex -9.13612 -1.15416 14
      vertex -26.9129 -0.227166 10.5
      vertex -26.8703 -0.45075 10.5
    endloop
  endfacet
  facet normal -0.201239 -0.0946977 0.974954
    outer loop
      vertex -8.06968 -4.43634 14
      vertex -26.8 -0.667225 10.5
      vertex -26.703 -0.873178 10.5
    endloop
  endfacet
  facet normal -0.197303 -0.0641065 0.978244
    outer loop
      vertex -8.56207 -3.38996 14
      vertex -26.8703 -0.45075 10.5
      vertex -26.8 -0.667225 10.5
    endloop
  endfacet
  facet normal -0.481753 -0.876307 0
    outer loop
      vertex -26.0859 -1.53034 0
      vertex -25.8865 -1.64 10.5
      vertex -26.0859 -1.53034 10.5
    endloop
  endfacet
  facet normal -0.481753 -0.876307 -0
    outer loop
      vertex -25.8865 -1.64 10.5
      vertex -26.0859 -1.53034 0
      vertex -25.8865 -1.64 0
    endloop
  endfacet
  facet normal -0.368124 -0.929777 0
    outer loop
      vertex -25.8865 -1.64 0
      vertex -25.6748 -1.72379 10.5
      vertex -25.8865 -1.64 10.5
    endloop
  endfacet
  facet normal -0.368124 -0.929777 -0
    outer loop
      vertex -25.6748 -1.72379 10.5
      vertex -25.8865 -1.64 0
      vertex -25.6748 -1.72379 0
    endloop
  endfacet
  facet normal -0.230018 -0.244946 0.941856
    outer loop
      vertex -6.71288 -6.30381 14
      vertex -26.436 -1.24074 10.5
      vertex -26.2701 -1.39655 10.5
    endloop
  endfacet
  facet normal -0.230018 -0.244944 0.941857
    outer loop
      vertex -6.71288 -6.30381 14
      vertex -26.2701 -1.39655 10.5
      vertex -5.86987 -7.09545 14
    endloop
  endfacet
  facet normal -0.684545 -0.72897 0
    outer loop
      vertex -26.436 -1.24074 0
      vertex -26.2701 -1.39655 10.5
      vertex -26.436 -1.24074 10.5
    endloop
  endfacet
  facet normal -0.684545 -0.72897 -0
    outer loop
      vertex -26.2701 -1.39655 10.5
      vertex -26.436 -1.24074 0
      vertex -26.2701 -1.39655 0
    endloop
  endfacet
  facet normal -0.770516 -0.637421 0
    outer loop
      vertex -26.436 -1.24074 0
      vertex -26.5811 -1.06536 10.5
      vertex -26.5811 -1.06536 0
    endloop
  endfacet
  facet normal -0.770516 -0.637421 0
    outer loop
      vertex -26.5811 -1.06536 10.5
      vertex -26.436 -1.24074 0
      vertex -26.436 -1.24074 10.5
    endloop
  endfacet
  facet normal -0.287048 0.52214 0.803102
    outer loop
      vertex -25.8865 1.64 10.5
      vertex -26.0859 1.53034 10.5
      vertex -3.92089 8.33231 14
    endloop
  endfacet
  facet normal -0.32493 0.820681 0.470004
    outer loop
      vertex -25.6748 1.72379 10.5
      vertex -25.8865 1.64 10.5
      vertex -2.84566 8.75803 14
    endloop
  endfacet
  facet normal -0.251858 0.346654 0.903548
    outer loop
      vertex -26.0859 1.53034 10.5
      vertex -26.2701 1.39655 10.5
      vertex -4.93429 7.77519 14
    endloop
  endfacet
  facet normal -0.251858 0.346653 0.903548
    outer loop
      vertex -4.93429 7.77519 14
      vertex -26.2701 1.39655 10.5
      vertex -5.86987 7.09545 14
    endloop
  endfacet
  facet normal -0.201239 0.0946956 0.974954
    outer loop
      vertex -8.06968 4.43634 14
      vertex -26.8 0.667225 10.5
      vertex -8.56207 3.38996 14
    endloop
  endfacet
  facet normal -0.197303 0.0641065 0.978244
    outer loop
      vertex -26.8 0.667225 10.5
      vertex -26.8703 0.45075 10.5
      vertex -8.56207 3.38996 14
    endloop
  endfacet
  facet normal -0.201239 -0.0946956 0.974954
    outer loop
      vertex -8.56207 -3.38996 14
      vertex -26.8 -0.667225 10.5
      vertex -8.06968 -4.43634 14
    endloop
  endfacet
  facet normal -0.904824 -0.425786 0
    outer loop
      vertex -26.703 -0.873178 0
      vertex -26.8 -0.667225 10.5
      vertex -26.8 -0.667225 0
    endloop
  endfacet
  facet normal -0.904824 -0.425786 0
    outer loop
      vertex -26.8 -0.667225 10.5
      vertex -26.703 -0.873178 0
      vertex -26.703 -0.873178 10.5
    endloop
  endfacet
  facet normal -0.951058 -0.309011 0
    outer loop
      vertex -26.8 -0.667225 0
      vertex -26.8703 -0.45075 10.5
      vertex -26.8703 -0.45075 0
    endloop
  endfacet
  facet normal -0.951058 -0.309011 0
    outer loop
      vertex -26.8703 -0.45075 10.5
      vertex -26.8 -0.667225 0
      vertex -26.8 -0.667225 10.5
    endloop
  endfacet
  facet normal -0.844329 -0.535825 0
    outer loop
      vertex -26.5811 -1.06536 0
      vertex -26.703 -0.873178 10.5
      vertex -26.703 -0.873178 0
    endloop
  endfacet
  facet normal -0.844329 -0.535825 0
    outer loop
      vertex -26.703 -0.873178 10.5
      vertex -26.5811 -1.06536 0
      vertex -26.5811 -1.06536 10.5
    endloop
  endfacet
  facet normal -0.207238 -0.131517 0.96941
    outer loop
      vertex -7.45002 -5.41276 14
      vertex -26.703 -0.873178 10.5
      vertex -26.5811 -1.06536 10.5
    endloop
  endfacet
  facet normal -0.287048 -0.52214 0.803102
    outer loop
      vertex -3.92089 -8.33231 14
      vertex -26.0859 -1.53034 10.5
      vertex -25.8865 -1.64 10.5
    endloop
  endfacet
  facet normal -0.287048 -0.522139 0.803103
    outer loop
      vertex -4.93429 -7.77519 14
      vertex -26.0859 -1.53034 10.5
      vertex -3.92089 -8.33231 14
    endloop
  endfacet
  facet normal -0.587785 -0.809017 0
    outer loop
      vertex -26.2701 -1.39655 0
      vertex -26.0859 -1.53034 10.5
      vertex -26.2701 -1.39655 10.5
    endloop
  endfacet
  facet normal -0.587785 -0.809017 -0
    outer loop
      vertex -26.0859 -1.53034 10.5
      vertex -26.2701 -1.39655 0
      vertex -26.0859 -1.53034 0
    endloop
  endfacet
  facet normal -0.251858 -0.346654 0.903548
    outer loop
      vertex -4.93429 -7.77519 14
      vertex -26.2701 -1.39655 10.5
      vertex -26.0859 -1.53034 10.5
    endloop
  endfacet
  facet normal -0.287048 0.522139 0.803103
    outer loop
      vertex -3.92089 8.33231 14
      vertex -26.0859 1.53034 10.5
      vertex -4.93429 7.77519 14
    endloop
  endfacet
  facet normal -0.866025 -0.5 0
    outer loop
      vertex 8.37158 0 7.5
      vertex 4.18579 7.25 14
      vertex 4.18579 7.25 7.5
    endloop
  endfacet
  facet normal -0.866025 -0.5 0
    outer loop
      vertex 4.18579 7.25 14
      vertex 8.37158 0 7.5
      vertex 8.37158 0 14
    endloop
  endfacet
  facet normal 0.866025 -0.5 0
    outer loop
      vertex -8.37158 0 14
      vertex -4.18579 7.25 7.5
      vertex -4.18579 7.25 14
    endloop
  endfacet
  facet normal 0.866025 -0.5 0
    outer loop
      vertex -4.18579 7.25 7.5
      vertex -8.37158 0 14
      vertex -8.37158 0 7.5
    endloop
  endfacet
  facet normal 0 -1 0
    outer loop
      vertex -4.18579 7.25 7.5
      vertex 4.18579 7.25 14
      vertex -4.18579 7.25 14
    endloop
  endfacet
  facet normal 0 -1 -0
    outer loop
      vertex 4.18579 7.25 14
      vertex -4.18579 7.25 7.5
      vertex 4.18579 7.25 7.5
    endloop
  endfacet
  facet normal 0 0 1
    outer loop
      vertex 4.18579 7.25 7.5
      vertex 4.18579 -7.25 7.5
      vertex 8.37158 0 7.5
    endloop
  endfacet
  facet normal -0 0 1
    outer loop
      vertex -4.18579 7.25 7.5
      vertex 4.18579 -7.25 7.5
      vertex 4.18579 7.25 7.5
    endloop
  endfacet
  facet normal 0 0 1
    outer loop
      vertex -4.18579 7.25 7.5
      vertex -4.18579 -7.25 7.5
      vertex 4.18579 -7.25 7.5
    endloop
  endfacet
  facet normal 0 -0 1
    outer loop
      vertex -4.18579 -7.25 7.5
      vertex -4.18579 7.25 7.5
      vertex -8.37158 0 7.5
    endloop
  endfacet
  facet normal 0 1 -0
    outer loop
      vertex 4.18579 -7.25 7.5
      vertex -4.18579 -7.25 14
      vertex 4.18579 -7.25 14
    endloop
  endfacet
  facet normal 0 1 0
    outer loop
      vertex -4.18579 -7.25 14
      vertex 4.18579 -7.25 7.5
      vertex -4.18579 -7.25 7.5
    endloop
  endfacet
  facet normal 0.866025 0.5 0
    outer loop
      vertex -4.18579 -7.25 14
      vertex -8.37158 0 7.5
      vertex -8.37158 0 14
    endloop
  endfacet
  facet normal 0.866025 0.5 0
    outer loop
      vertex -8.37158 0 7.5
      vertex -4.18579 -7.25 14
      vertex -4.18579 -7.25 7.5
    endloop
  endfacet
  facet normal -0.866025 0.5 0
    outer loop
      vertex 4.18579 -7.25 7.5
      vertex 8.37158 0 14
      vertex 8.37158 0 7.5
    endloop
  endfacet
  facet normal -0.866025 0.5 0
    outer loop
      vertex 8.37158 0 14
      vertex 4.18579 -7.25 7.5
      vertex 4.18579 -7.25 14
    endloop
  endfacet
endsolid OpenSCAD_Model
