solid OpenSCAD_Model
  facet normal 0 0 -1
    outer loop
      vertex 5.08317 -0.131599 0
      vertex 5.08317 0.131599 0
      vertex 5.09145 0 0
    endloop
  endfacet
  facet normal 0 0 -1
    outer loop
      vertex 5.05846 -0.261124 0
      vertex 5.08317 0.131599 0
      vertex 5.08317 -0.131599 0
    endloop
  endfacet
  facet normal 0 0 -1
    outer loop
      vertex 5.05846 -0.261124 0
      vertex 5.05846 0.261124 0
      vertex 5.08317 0.131599 0
    endloop
  endfacet
  facet normal 0 0 -1
    outer loop
      vertex 5.01772 -0.38653 0
      vertex 5.05846 0.261124 0
      vertex 5.05846 -0.261124 0
    endloop
  endfacet
  facet normal 0 0 -1
    outer loop
      vertex 5.01772 -0.38653 0
      vertex 5.01772 0.38653 0
      vertex 5.05846 0.261124 0
    endloop
  endfacet
  facet normal 0 0 -1
    outer loop
      vertex 4.96157 -0.505841 0
      vertex 5.01772 0.38653 0
      vertex 5.01772 -0.38653 0
    endloop
  endfacet
  facet normal 0 0 -1
    outer loop
      vertex 4.96157 -0.505841 0
      vertex 4.96157 0.505841 0
      vertex 5.01772 0.38653 0
    endloop
  endfacet
  facet normal 0 0 -1
    outer loop
      vertex 4.89092 -0.617174 0
      vertex 4.96157 0.505841 0
      vertex 4.96157 -0.505841 0
    endloop
  endfacet
  facet normal 0 0 -1
    outer loop
      vertex 4.89092 -0.617174 0
      vertex 4.89092 0.617174 0
      vertex 4.96157 0.505841 0
    endloop
  endfacet
  facet normal 0 0 -1
    outer loop
      vertex 3.71111 -2.1363 0
      vertex 4.89092 0.617174 0
      vertex 4.89092 -0.617174 0
    endloop
  endfacet
  facet normal 0 0 -1
    outer loop
      vertex 3.71111 -2.1363 0
      vertex 3.71111 2.1363 0
      vertex 4.89092 0.617174 0
    endloop
  endfacet
  facet normal 0 0 -1
    outer loop
      vertex 0 -4.27881 0
      vertex 3.71111 -2.1363 0
      vertex 2.97995 -3.92707 0
    endloop
  endfacet
  facet normal -0 0 -1
    outer loop
      vertex 3.71111 -2.1363 0
      vertex 0 -4.27881 0
      vertex 3.71111 2.1363 0
    endloop
  endfacet
  facet normal 0 0 -1
    outer loop
      vertex 1.91097 -4.54425 0
      vertex 2.97995 -3.92707 0
      vertex 2.91886 -4.04393 0
    endloop
  endfacet
  facet normal 0 0 -1
    outer loop
      vertex 0 4.27881 0
      vertex 3.71111 2.1363 0
      vertex 0 -4.27881 0
    endloop
  endfacet
  facet normal 0 0 -1
    outer loop
      vertex 1.91097 -4.54425 0
      vertex 2.91886 -4.04393 0
      vertex 2.8436 -4.1522 0
    endloop
  endfacet
  facet normal 0 0 -1
    outer loop
      vertex 3.71111 2.1363 0
      vertex 0 4.27881 0
      vertex 2.97995 3.92707 0
    endloop
  endfacet
  facet normal 0 0 -1
    outer loop
      vertex 1.91097 -4.54425 0
      vertex 2.8436 -4.1522 0
      vertex 2.75537 -4.2502 0
    endloop
  endfacet
  facet normal 0 -0 -1
    outer loop
      vertex 1.91097 4.54425 0
      vertex 2.97995 3.92707 0
      vertex 0 4.27881 0
    endloop
  endfacet
  facet normal 0 0 -1
    outer loop
      vertex 1.91097 -4.54425 0
      vertex 2.75537 -4.2502 0
      vertex 2.65555 -4.33636 0
    endloop
  endfacet
  facet normal 0 0 -1
    outer loop
      vertex 2.97995 3.92707 0
      vertex 1.91097 4.54425 0
      vertex 2.91886 4.04393 0
    endloop
  endfacet
  facet normal 0 0 -1
    outer loop
      vertex 1.91097 -4.54425 0
      vertex 2.65555 -4.33636 0
      vertex 2.54573 -4.40933 0
    endloop
  endfacet
  facet normal 0 0 -1
    outer loop
      vertex 2.91886 4.04393 0
      vertex 1.91097 4.54425 0
      vertex 2.8436 4.1522 0
    endloop
  endfacet
  facet normal 0 0 -1
    outer loop
      vertex 1.91097 -4.54425 0
      vertex 2.54573 -4.40933 0
      vertex 2.42762 -4.46796 0
    endloop
  endfacet
  facet normal 0 0 -1
    outer loop
      vertex 2.8436 4.1522 0
      vertex 1.91097 4.54425 0
      vertex 2.75537 4.2502 0
    endloop
  endfacet
  facet normal 0 0 -1
    outer loop
      vertex 1.91097 -4.54425 0
      vertex 2.42762 -4.46796 0
      vertex 2.30309 -4.51132 0
    endloop
  endfacet
  facet normal 0 0 -1
    outer loop
      vertex 2.97995 -3.92707 0
      vertex 1.91097 -4.54425 0
      vertex 0 -4.27881 0
    endloop
  endfacet
  facet normal 0 0 -1
    outer loop
      vertex 1.91097 -4.54425 0
      vertex 2.30309 -4.51132 0
      vertex 2.17411 -4.53874 0
    endloop
  endfacet
  facet normal 0 0 -1
    outer loop
      vertex 2.75537 4.2502 0
      vertex 1.91097 4.54425 0
      vertex 2.65555 4.33636 0
    endloop
  endfacet
  facet normal 0 0 -1
    outer loop
      vertex 1.91097 -4.54425 0
      vertex 2.17411 -4.53874 0
      vertex 2.04272 -4.54977 0
    endloop
  endfacet
  facet normal 0 0 -1
    outer loop
      vertex 2.42762 4.46796 0
      vertex 1.91097 4.54425 0
      vertex 2.30309 4.51132 0
    endloop
  endfacet
  facet normal 0 0 -1
    outer loop
      vertex 2.30309 4.51132 0
      vertex 1.91097 4.54425 0
      vertex 2.17411 4.53874 0
    endloop
  endfacet
  facet normal 0 0 -1
    outer loop
      vertex 2.17411 4.53874 0
      vertex 1.91097 4.54425 0
      vertex 2.04272 4.54977 0
    endloop
  endfacet
  facet normal 0 0 -1
    outer loop
      vertex 2.65555 4.33636 0
      vertex 1.91097 4.54425 0
      vertex 2.54573 4.40933 0
    endloop
  endfacet
  facet normal 0 0 -1
    outer loop
      vertex 2.54573 4.40933 0
      vertex 1.91097 4.54425 0
      vertex 2.42762 4.46796 0
    endloop
  endfacet
  facet normal 0 0 -1
    outer loop
      vertex -3.71111 -2.1363 0
      vertex 0 -4.27881 0
      vertex -1.91097 -4.54425 0
    endloop
  endfacet
  facet normal 0 0 -1
    outer loop
      vertex 0 -4.27881 0
      vertex -3.71111 -2.1363 0
      vertex 0 4.27881 0
    endloop
  endfacet
  facet normal 0 0 -1
    outer loop
      vertex -2.97995 -3.92707 0
      vertex -1.91097 -4.54425 0
      vertex -2.04272 -4.54977 0
    endloop
  endfacet
  facet normal 0 0 -1
    outer loop
      vertex -3.71111 2.1363 0
      vertex 0 4.27881 0
      vertex -3.71111 -2.1363 0
    endloop
  endfacet
  facet normal 0 0 -1
    outer loop
      vertex -2.97995 -3.92707 0
      vertex -2.04272 -4.54977 0
      vertex -2.17411 -4.53874 0
    endloop
  endfacet
  facet normal -0 0 -1
    outer loop
      vertex 0 4.27881 0
      vertex -3.71111 2.1363 0
      vertex -1.91097 4.54425 0
    endloop
  endfacet
  facet normal 0 0 -1
    outer loop
      vertex -2.97995 -3.92707 0
      vertex -2.17411 -4.53874 0
      vertex -2.30309 -4.51132 0
    endloop
  endfacet
  facet normal 0 -0 -1
    outer loop
      vertex -2.97995 3.92707 0
      vertex -1.91097 4.54425 0
      vertex -3.71111 2.1363 0
    endloop
  endfacet
  facet normal 0 0 -1
    outer loop
      vertex -2.97995 -3.92707 0
      vertex -2.30309 -4.51132 0
      vertex -2.42762 -4.46796 0
    endloop
  endfacet
  facet normal -0 0 -1
    outer loop
      vertex -1.91097 4.54425 0
      vertex -2.97995 3.92707 0
      vertex -2.04272 4.54977 0
    endloop
  endfacet
  facet normal 0 0 -1
    outer loop
      vertex -2.97995 -3.92707 0
      vertex -2.42762 -4.46796 0
      vertex -2.54573 -4.40933 0
    endloop
  endfacet
  facet normal 0 0 -1
    outer loop
      vertex -2.04272 4.54977 0
      vertex -2.97995 3.92707 0
      vertex -2.17411 4.53874 0
    endloop
  endfacet
  facet normal 0 0 -1
    outer loop
      vertex -2.97995 -3.92707 0
      vertex -2.54573 -4.40933 0
      vertex -2.65555 -4.33636 0
    endloop
  endfacet
  facet normal 0 0 -1
    outer loop
      vertex -2.17411 4.53874 0
      vertex -2.97995 3.92707 0
      vertex -2.30309 4.51132 0
    endloop
  endfacet
  facet normal 0 0 -1
    outer loop
      vertex -2.97995 -3.92707 0
      vertex -2.65555 -4.33636 0
      vertex -2.75537 -4.2502 0
    endloop
  endfacet
  facet normal 0 0 -1
    outer loop
      vertex -2.30309 4.51132 0
      vertex -2.97995 3.92707 0
      vertex -2.42762 4.46796 0
    endloop
  endfacet
  facet normal 0 0 -1
    outer loop
      vertex -2.97995 -3.92707 0
      vertex -2.75537 -4.2502 0
      vertex -2.8436 -4.1522 0
    endloop
  endfacet
  facet normal 0 0 -1
    outer loop
      vertex -2.42762 4.46796 0
      vertex -2.97995 3.92707 0
      vertex -2.54573 4.40933 0
    endloop
  endfacet
  facet normal 0 0 -1
    outer loop
      vertex -2.97995 -3.92707 0
      vertex -2.8436 -4.1522 0
      vertex -2.91886 -4.04393 0
    endloop
  endfacet
  facet normal 0 0 -1
    outer loop
      vertex -1.91097 -4.54425 0
      vertex -2.97995 -3.92707 0
      vertex -3.71111 -2.1363 0
    endloop
  endfacet
  facet normal 0 0 -1
    outer loop
      vertex -2.54573 4.40933 0
      vertex -2.97995 3.92707 0
      vertex -2.65555 4.33636 0
    endloop
  endfacet
  facet normal 0 0 -1
    outer loop
      vertex -2.8436 4.1522 0
      vertex -2.97995 3.92707 0
      vertex -2.91886 4.04393 0
    endloop
  endfacet
  facet normal 0 0 -1
    outer loop
      vertex -2.65555 4.33636 0
      vertex -2.97995 3.92707 0
      vertex -2.75537 4.2502 0
    endloop
  endfacet
  facet normal 0 0 -1
    outer loop
      vertex -2.75537 4.2502 0
      vertex -2.97995 3.92707 0
      vertex -2.8436 4.1522 0
    endloop
  endfacet
  facet normal 0 0 -1
    outer loop
      vertex -4.89092 -0.617174 0
      vertex -3.71111 2.1363 0
      vertex -3.71111 -2.1363 0
    endloop
  endfacet
  facet normal 0 0 -1
    outer loop
      vertex -4.89092 -0.617174 0
      vertex -4.89092 0.617174 0
      vertex -3.71111 2.1363 0
    endloop
  endfacet
  facet normal 0 0 -1
    outer loop
      vertex -4.96157 -0.505841 0
      vertex -4.89092 0.617174 0
      vertex -4.89092 -0.617174 0
    endloop
  endfacet
  facet normal 0 0 -1
    outer loop
      vertex -4.96157 -0.505841 0
      vertex -4.96157 0.505841 0
      vertex -4.89092 0.617174 0
    endloop
  endfacet
  facet normal 0 0 -1
    outer loop
      vertex -5.01772 -0.38653 0
      vertex -4.96157 0.505841 0
      vertex -4.96157 -0.505841 0
    endloop
  endfacet
  facet normal 0 0 -1
    outer loop
      vertex -5.01772 -0.38653 0
      vertex -5.01772 0.38653 0
      vertex -4.96157 0.505841 0
    endloop
  endfacet
  facet normal 0 0 -1
    outer loop
      vertex -5.05846 -0.261124 0
      vertex -5.01772 0.38653 0
      vertex -5.01772 -0.38653 0
    endloop
  endfacet
  facet normal 0 0 -1
    outer loop
      vertex -5.05846 -0.261124 0
      vertex -5.05846 0.261124 0
      vertex -5.01772 0.38653 0
    endloop
  endfacet
  facet normal 0 0 -1
    outer loop
      vertex -5.08317 -0.131599 0
      vertex -5.05846 0.261124 0
      vertex -5.05846 -0.261124 0
    endloop
  endfacet
  facet normal 0 0 -1
    outer loop
      vertex -5.08317 -0.131599 0
      vertex -5.08317 0.131599 0
      vertex -5.05846 0.261124 0
    endloop
  endfacet
  facet normal 0 -0 -1
    outer loop
      vertex -5.08317 0.131599 0
      vertex -5.08317 -0.131599 0
      vertex -5.09145 0 0
    endloop
  endfacet
  facet normal 0 0 1
    outer loop
      vertex 4.04145 0 6
      vertex 5.09145 0 6
      vertex 5.08317 0.131599 6
    endloop
  endfacet
  facet normal 0 0 1
    outer loop
      vertex 4.04145 0 6
      vertex 5.08317 0.131599 6
      vertex 5.05846 0.261124 6
    endloop
  endfacet
  facet normal 0 0 1
    outer loop
      vertex 5.09145 0 6
      vertex 4.04145 0 6
      vertex 5.08317 -0.131599 6
    endloop
  endfacet
  facet normal 0 0 1
    outer loop
      vertex 4.04145 0 6
      vertex 5.05846 0.261124 6
      vertex 5.01772 0.38653 6
    endloop
  endfacet
  facet normal 0 0 1
    outer loop
      vertex 5.08317 -0.131599 6
      vertex 4.04145 0 6
      vertex 5.05846 -0.261124 6
    endloop
  endfacet
  facet normal 0 0 1
    outer loop
      vertex 4.04145 0 6
      vertex 5.01772 0.38653 6
      vertex 4.96157 0.505841 6
    endloop
  endfacet
  facet normal 0 0 1
    outer loop
      vertex 5.05846 -0.261124 6
      vertex 4.04145 0 6
      vertex 5.01772 -0.38653 6
    endloop
  endfacet
  facet normal 0 0 1
    outer loop
      vertex 4.04145 0 6
      vertex 4.96157 0.505841 6
      vertex 4.89092 0.617174 6
    endloop
  endfacet
  facet normal 0 0 1
    outer loop
      vertex 5.01772 -0.38653 6
      vertex 4.04145 0 6
      vertex 4.96157 -0.505841 6
    endloop
  endfacet
  facet normal 0 0 1
    outer loop
      vertex 4.96157 -0.505841 6
      vertex 4.04145 0 6
      vertex 4.89092 -0.617174 6
    endloop
  endfacet
  facet normal 0 0 1
    outer loop
      vertex 3.71111 2.1363 6
      vertex 4.04145 0 6
      vertex 4.89092 0.617174 6
    endloop
  endfacet
  facet normal -0 0 1
    outer loop
      vertex 2.02073 3.5 6
      vertex 3.71111 2.1363 6
      vertex 2.97995 3.92707 6
    endloop
  endfacet
  facet normal 0 0 1
    outer loop
      vertex 2.02073 3.5 6
      vertex 2.97995 3.92707 6
      vertex 2.91886 4.04393 6
    endloop
  endfacet
  facet normal 0 0 1
    outer loop
      vertex 2.02073 3.5 6
      vertex 2.91886 4.04393 6
      vertex 2.8436 4.1522 6
    endloop
  endfacet
  facet normal 0 0 1
    outer loop
      vertex 2.02073 3.5 6
      vertex 2.8436 4.1522 6
      vertex 2.75537 4.2502 6
    endloop
  endfacet
  facet normal 0 0 1
    outer loop
      vertex 2.02073 3.5 6
      vertex 2.75537 4.2502 6
      vertex 2.65555 4.33636 6
    endloop
  endfacet
  facet normal 0 0 1
    outer loop
      vertex 2.02073 3.5 6
      vertex 2.65555 4.33636 6
      vertex 2.54573 4.40933 6
    endloop
  endfacet
  facet normal 0 0 1
    outer loop
      vertex 2.02073 3.5 6
      vertex 2.54573 4.40933 6
      vertex 2.42762 4.46796 6
    endloop
  endfacet
  facet normal 0 0 1
    outer loop
      vertex 2.02073 3.5 6
      vertex 2.42762 4.46796 6
      vertex 2.30309 4.51132 6
    endloop
  endfacet
  facet normal 0 0 1
    outer loop
      vertex 2.02073 3.5 6
      vertex 2.30309 4.51132 6
      vertex 2.17411 4.53874 6
    endloop
  endfacet
  facet normal 0 0 1
    outer loop
      vertex 2.02073 3.5 6
      vertex 2.17411 4.53874 6
      vertex 2.04272 4.54977 6
    endloop
  endfacet
  facet normal 0 0 1
    outer loop
      vertex 3.71111 2.1363 6
      vertex 2.02073 3.5 6
      vertex 4.04145 0 6
    endloop
  endfacet
  facet normal -0 0 1
    outer loop
      vertex 1.91097 4.54425 6
      vertex 2.02073 3.5 6
      vertex 2.04272 4.54977 6
    endloop
  endfacet
  facet normal -0 0 1
    outer loop
      vertex 0 4.27881 6
      vertex 2.02073 3.5 6
      vertex 1.91097 4.54425 6
    endloop
  endfacet
  facet normal 0 0 1
    outer loop
      vertex -2.02073 3.5 6
      vertex 0 4.27881 6
      vertex -1.91097 4.54425 6
    endloop
  endfacet
  facet normal 0 0 1
    outer loop
      vertex 0 4.27881 6
      vertex -2.02073 3.5 6
      vertex 2.02073 3.5 6
    endloop
  endfacet
  facet normal 0 0 1
    outer loop
      vertex -2.04272 4.54977 6
      vertex -2.02073 3.5 6
      vertex -1.91097 4.54425 6
    endloop
  endfacet
  facet normal -0 0 1
    outer loop
      vertex -2.17411 4.53874 6
      vertex -2.02073 3.5 6
      vertex -2.04272 4.54977 6
    endloop
  endfacet
  facet normal -0 0 1
    outer loop
      vertex -2.30309 4.51132 6
      vertex -2.02073 3.5 6
      vertex -2.17411 4.53874 6
    endloop
  endfacet
  facet normal -0 0 1
    outer loop
      vertex -2.42762 4.46796 6
      vertex -2.02073 3.5 6
      vertex -2.30309 4.51132 6
    endloop
  endfacet
  facet normal -0 0 1
    outer loop
      vertex -2.54573 4.40933 6
      vertex -2.02073 3.5 6
      vertex -2.42762 4.46796 6
    endloop
  endfacet
  facet normal -0 0 1
    outer loop
      vertex -2.65555 4.33636 6
      vertex -2.02073 3.5 6
      vertex -2.54573 4.40933 6
    endloop
  endfacet
  facet normal -0 0 1
    outer loop
      vertex -2.75537 4.2502 6
      vertex -2.02073 3.5 6
      vertex -2.65555 4.33636 6
    endloop
  endfacet
  facet normal -0 0 1
    outer loop
      vertex -2.8436 4.1522 6
      vertex -2.02073 3.5 6
      vertex -2.75537 4.2502 6
    endloop
  endfacet
  facet normal -0 0 1
    outer loop
      vertex -2.91886 4.04393 6
      vertex -2.02073 3.5 6
      vertex -2.8436 4.1522 6
    endloop
  endfacet
  facet normal -0 0 1
    outer loop
      vertex -2.97995 3.92707 6
      vertex -2.02073 3.5 6
      vertex -2.91886 4.04393 6
    endloop
  endfacet
  facet normal 0 0 1
    outer loop
      vertex -3.71111 2.1363 6
      vertex -2.02073 3.5 6
      vertex -2.97995 3.92707 6
    endloop
  endfacet
  facet normal -0 0 1
    outer loop
      vertex -3.71111 2.1363 6
      vertex -4.04145 0 6
      vertex -2.02073 3.5 6
    endloop
  endfacet
  facet normal 0 -0 1
    outer loop
      vertex -4.04145 0 6
      vertex -3.71111 2.1363 6
      vertex -4.89092 0.617174 6
    endloop
  endfacet
  facet normal 0 0 1
    outer loop
      vertex 4.04145 0 6
      vertex 3.71111 -2.1363 6
      vertex 4.89092 -0.617174 6
    endloop
  endfacet
  facet normal 0 0 1
    outer loop
      vertex 2.02073 -3.5 6
      vertex 3.71111 -2.1363 6
      vertex 4.04145 0 6
    endloop
  endfacet
  facet normal 0 0 1
    outer loop
      vertex 3.71111 -2.1363 6
      vertex 2.02073 -3.5 6
      vertex 2.97995 -3.92707 6
    endloop
  endfacet
  facet normal 0 0 1
    outer loop
      vertex 2.97995 -3.92707 6
      vertex 2.02073 -3.5 6
      vertex 2.91886 -4.04393 6
    endloop
  endfacet
  facet normal 0 0 1
    outer loop
      vertex 2.91886 -4.04393 6
      vertex 2.02073 -3.5 6
      vertex 2.8436 -4.1522 6
    endloop
  endfacet
  facet normal 0 0 1
    outer loop
      vertex 2.8436 -4.1522 6
      vertex 2.02073 -3.5 6
      vertex 2.75537 -4.2502 6
    endloop
  endfacet
  facet normal 0 0 1
    outer loop
      vertex 2.75537 -4.2502 6
      vertex 2.02073 -3.5 6
      vertex 2.65555 -4.33636 6
    endloop
  endfacet
  facet normal 0 0 1
    outer loop
      vertex 2.65555 -4.33636 6
      vertex 2.02073 -3.5 6
      vertex 2.54573 -4.40933 6
    endloop
  endfacet
  facet normal 0 0 1
    outer loop
      vertex 2.54573 -4.40933 6
      vertex 2.02073 -3.5 6
      vertex 2.42762 -4.46796 6
    endloop
  endfacet
  facet normal 0 0 1
    outer loop
      vertex 2.42762 -4.46796 6
      vertex 2.02073 -3.5 6
      vertex 2.30309 -4.51132 6
    endloop
  endfacet
  facet normal 0 0 1
    outer loop
      vertex 2.30309 -4.51132 6
      vertex 2.02073 -3.5 6
      vertex 2.17411 -4.53874 6
    endloop
  endfacet
  facet normal 0 0 1
    outer loop
      vertex 2.17411 -4.53874 6
      vertex 2.02073 -3.5 6
      vertex 2.04272 -4.54977 6
    endloop
  endfacet
  facet normal 0 0 1
    outer loop
      vertex 2.02073 -3.5 6
      vertex 1.91097 -4.54425 6
      vertex 2.04272 -4.54977 6
    endloop
  endfacet
  facet normal 0 0 1
    outer loop
      vertex 2.02073 -3.5 6
      vertex 0 -4.27881 6
      vertex 1.91097 -4.54425 6
    endloop
  endfacet
  facet normal -0 0 1
    outer loop
      vertex -2.02073 -3.5 6
      vertex 0 -4.27881 6
      vertex 2.02073 -3.5 6
    endloop
  endfacet
  facet normal 0 0 1
    outer loop
      vertex 0 -4.27881 6
      vertex -2.02073 -3.5 6
      vertex -1.91097 -4.54425 6
    endloop
  endfacet
  facet normal 0 0 1
    outer loop
      vertex -2.02073 -3.5 6
      vertex -2.04272 -4.54977 6
      vertex -1.91097 -4.54425 6
    endloop
  endfacet
  facet normal 0 0 1
    outer loop
      vertex -2.02073 -3.5 6
      vertex -2.17411 -4.53874 6
      vertex -2.04272 -4.54977 6
    endloop
  endfacet
  facet normal 0 0 1
    outer loop
      vertex -2.02073 -3.5 6
      vertex -2.30309 -4.51132 6
      vertex -2.17411 -4.53874 6
    endloop
  endfacet
  facet normal 0 0 1
    outer loop
      vertex -2.02073 -3.5 6
      vertex -2.42762 -4.46796 6
      vertex -2.30309 -4.51132 6
    endloop
  endfacet
  facet normal 0 0 1
    outer loop
      vertex -2.02073 -3.5 6
      vertex -2.54573 -4.40933 6
      vertex -2.42762 -4.46796 6
    endloop
  endfacet
  facet normal 0 0 1
    outer loop
      vertex -2.02073 -3.5 6
      vertex -2.65555 -4.33636 6
      vertex -2.54573 -4.40933 6
    endloop
  endfacet
  facet normal 0 0 1
    outer loop
      vertex -2.02073 -3.5 6
      vertex -2.75537 -4.2502 6
      vertex -2.65555 -4.33636 6
    endloop
  endfacet
  facet normal 0 0 1
    outer loop
      vertex -2.02073 -3.5 6
      vertex -2.8436 -4.1522 6
      vertex -2.75537 -4.2502 6
    endloop
  endfacet
  facet normal 0 0 1
    outer loop
      vertex -2.02073 -3.5 6
      vertex -2.91886 -4.04393 6
      vertex -2.8436 -4.1522 6
    endloop
  endfacet
  facet normal 0 0 1
    outer loop
      vertex -2.02073 -3.5 6
      vertex -2.97995 -3.92707 6
      vertex -2.91886 -4.04393 6
    endloop
  endfacet
  facet normal 0 0 1
    outer loop
      vertex -2.02073 -3.5 6
      vertex -3.71111 -2.1363 6
      vertex -2.97995 -3.92707 6
    endloop
  endfacet
  facet normal 0 0 1
    outer loop
      vertex -4.04145 0 6
      vertex -3.71111 -2.1363 6
      vertex -2.02073 -3.5 6
    endloop
  endfacet
  facet normal -0 0 1
    outer loop
      vertex -4.96157 0.505841 6
      vertex -4.04145 0 6
      vertex -4.89092 0.617174 6
    endloop
  endfacet
  facet normal 0 0 1
    outer loop
      vertex -4.04145 0 6
      vertex -4.89092 -0.617174 6
      vertex -3.71111 -2.1363 6
    endloop
  endfacet
  facet normal -0 0 1
    outer loop
      vertex -5.01772 0.38653 6
      vertex -4.04145 0 6
      vertex -4.96157 0.505841 6
    endloop
  endfacet
  facet normal 0 0 1
    outer loop
      vertex -4.04145 0 6
      vertex -4.96157 -0.505841 6
      vertex -4.89092 -0.617174 6
    endloop
  endfacet
  facet normal -0 0 1
    outer loop
      vertex -5.05846 0.261124 6
      vertex -4.04145 0 6
      vertex -5.01772 0.38653 6
    endloop
  endfacet
  facet normal 0 0 1
    outer loop
      vertex -4.04145 0 6
      vertex -5.01772 -0.38653 6
      vertex -4.96157 -0.505841 6
    endloop
  endfacet
  facet normal -0 0 1
    outer loop
      vertex -5.08317 0.131599 6
      vertex -4.04145 0 6
      vertex -5.05846 0.261124 6
    endloop
  endfacet
  facet normal 0 0 1
    outer loop
      vertex -4.04145 0 6
      vertex -5.05846 -0.261124 6
      vertex -5.01772 -0.38653 6
    endloop
  endfacet
  facet normal 0 0 1
    outer loop
      vertex -5.09145 0 6
      vertex -4.04145 0 6
      vertex -5.08317 0.131599 6
    endloop
  endfacet
  facet normal 0 0 1
    outer loop
      vertex -4.04145 0 6
      vertex -5.08317 -0.131599 6
      vertex -5.05846 -0.261124 6
    endloop
  endfacet
  facet normal 0 0 1
    outer loop
      vertex -4.04145 0 6
      vertex -5.09145 0 6
      vertex -5.08317 -0.131599 6
    endloop
  endfacet
  facet normal 0.951055 -0.309022 0
    outer loop
      vertex 5.01772 -0.38653 6
      vertex 5.05846 -0.261124 0
      vertex 5.05846 -0.261124 6
    endloop
  endfacet
  facet normal 0.951055 -0.309022 0
    outer loop
      vertex 5.05846 -0.261124 0
      vertex 5.01772 -0.38653 6
      vertex 5.01772 -0.38653 0
    endloop
  endfacet
  facet normal 0.789787 -0.613381 0
    outer loop
      vertex 3.71111 -2.1363 6
      vertex 4.89092 -0.617174 0
      vertex 4.89092 -0.617174 6
    endloop
  endfacet
  facet normal 0.789787 -0.613381 0
    outer loop
      vertex 4.89092 -0.617174 0
      vertex 3.71111 -2.1363 6
      vertex 3.71111 -2.1363 0
    endloop
  endfacet
  facet normal 0.789787 0.613381 0
    outer loop
      vertex 4.89092 0.617174 6
      vertex 3.71111 2.1363 0
      vertex 3.71111 2.1363 6
    endloop
  endfacet
  facet normal 0.789787 0.613381 0
    outer loop
      vertex 3.71111 2.1363 0
      vertex 4.89092 0.617174 6
      vertex 4.89092 0.617174 0
    endloop
  endfacet
  facet normal 0.982288 0.187379 0
    outer loop
      vertex 5.08317 0.131599 6
      vertex 5.05846 0.261124 0
      vertex 5.05846 0.261124 6
    endloop
  endfacet
  facet normal 0.982288 0.187379 0
    outer loop
      vertex 5.05846 0.261124 0
      vertex 5.08317 0.131599 6
      vertex 5.08317 0.131599 0
    endloop
  endfacet
  facet normal 0.844328 0.535826 0
    outer loop
      vertex 4.96157 0.505841 6
      vertex 4.89092 0.617174 0
      vertex 4.89092 0.617174 6
    endloop
  endfacet
  facet normal 0.844328 0.535826 0
    outer loop
      vertex 4.89092 0.617174 0
      vertex 4.96157 0.505841 6
      vertex 4.96157 0.505841 0
    endloop
  endfacet
  facet normal 0.90483 0.425774 0
    outer loop
      vertex 5.01772 0.38653 6
      vertex 4.96157 0.505841 0
      vertex 4.96157 0.505841 6
    endloop
  endfacet
  facet normal 0.90483 0.425774 0
    outer loop
      vertex 4.96157 0.505841 0
      vertex 5.01772 0.38653 6
      vertex 5.01772 0.38653 0
    endloop
  endfacet
  facet normal 0.998027 0.0627925 0
    outer loop
      vertex 5.09145 0 6
      vertex 5.08317 0.131599 0
      vertex 5.08317 0.131599 6
    endloop
  endfacet
  facet normal 0.998027 0.0627925 0
    outer loop
      vertex 5.08317 0.131599 0
      vertex 5.09145 0 6
      vertex 5.09145 0 0
    endloop
  endfacet
  facet normal 0.90483 -0.425774 0
    outer loop
      vertex 4.96157 -0.505841 6
      vertex 5.01772 -0.38653 0
      vertex 5.01772 -0.38653 6
    endloop
  endfacet
  facet normal 0.90483 -0.425774 0
    outer loop
      vertex 5.01772 -0.38653 0
      vertex 4.96157 -0.505841 6
      vertex 4.96157 -0.505841 0
    endloop
  endfacet
  facet normal 0.982288 -0.187379 0
    outer loop
      vertex 5.05846 -0.261124 6
      vertex 5.08317 -0.131599 0
      vertex 5.08317 -0.131599 6
    endloop
  endfacet
  facet normal 0.982288 -0.187379 0
    outer loop
      vertex 5.08317 -0.131599 0
      vertex 5.05846 -0.261124 6
      vertex 5.05846 -0.261124 0
    endloop
  endfacet
  facet normal 0.844328 -0.535826 0
    outer loop
      vertex 4.89092 -0.617174 6
      vertex 4.96157 -0.505841 0
      vertex 4.96157 -0.505841 6
    endloop
  endfacet
  facet normal 0.844328 -0.535826 0
    outer loop
      vertex 4.96157 -0.505841 0
      vertex 4.89092 -0.617174 6
      vertex 4.89092 -0.617174 0
    endloop
  endfacet
  facet normal 0.998027 -0.0627925 0
    outer loop
      vertex 5.08317 -0.131599 6
      vertex 5.09145 0 0
      vertex 5.09145 0 6
    endloop
  endfacet
  facet normal 0.998027 -0.0627925 0
    outer loop
      vertex 5.09145 0 0
      vertex 5.08317 -0.131599 6
      vertex 5.08317 -0.131599 0
    endloop
  endfacet
  facet normal 0.951055 0.309022 0
    outer loop
      vertex 5.05846 0.261124 6
      vertex 5.01772 0.38653 0
      vertex 5.01772 0.38653 6
    endloop
  endfacet
  facet normal 0.951055 0.309022 0
    outer loop
      vertex 5.01772 0.38653 0
      vertex 5.05846 0.261124 6
      vertex 5.05846 0.261124 0
    endloop
  endfacet
  facet normal 0.925806 0.377999 0
    outer loop
      vertex 3.71111 2.1363 6
      vertex 2.97995 3.92707 0
      vertex 2.97995 3.92707 6
    endloop
  endfacet
  facet normal 0.925806 0.377999 0
    outer loop
      vertex 2.97995 3.92707 0
      vertex 3.71111 2.1363 6
      vertex 3.71111 2.1363 0
    endloop
  endfacet
  facet normal 0.553393 0.832921 -0
    outer loop
      vertex 2.65555 4.33636 0
      vertex 2.54573 4.40933 6
      vertex 2.65555 4.33636 6
    endloop
  endfacet
  facet normal 0.553393 0.832921 0
    outer loop
      vertex 2.54573 4.40933 6
      vertex 2.65555 4.33636 0
      vertex 2.54573 4.40933 0
    endloop
  endfacet
  facet normal 0.886204 0.463295 0
    outer loop
      vertex 2.97995 3.92707 6
      vertex 2.91886 4.04393 0
      vertex 2.91886 4.04393 6
    endloop
  endfacet
  facet normal 0.886204 0.463295 0
    outer loop
      vertex 2.91886 4.04393 0
      vertex 2.97995 3.92707 6
      vertex 2.97995 3.92707 0
    endloop
  endfacet
  facet normal -0.137582 0.99049 0
    outer loop
      vertex 1.91097 4.54425 0
      vertex 0 4.27881 6
      vertex 1.91097 4.54425 6
    endloop
  endfacet
  facet normal -0.137582 0.99049 0
    outer loop
      vertex 0 4.27881 6
      vertex 1.91097 4.54425 0
      vertex 0 4.27881 0
    endloop
  endfacet
  facet normal -0.041876 0.999123 0
    outer loop
      vertex 2.04272 4.54977 0
      vertex 1.91097 4.54425 6
      vertex 2.04272 4.54977 6
    endloop
  endfacet
  facet normal -0.041876 0.999123 0
    outer loop
      vertex 1.91097 4.54425 6
      vertex 2.04272 4.54977 0
      vertex 1.91097 4.54425 0
    endloop
  endfacet
  facet normal 0.328866 0.944376 -0
    outer loop
      vertex 2.42762 4.46796 0
      vertex 2.30309 4.51132 6
      vertex 2.42762 4.46796 6
    endloop
  endfacet
  facet normal 0.328866 0.944376 0
    outer loop
      vertex 2.30309 4.51132 6
      vertex 2.42762 4.46796 0
      vertex 2.30309 4.51132 0
    endloop
  endfacet
  facet normal 0.207912 0.978148 -0
    outer loop
      vertex 2.30309 4.51132 0
      vertex 2.17411 4.53874 6
      vertex 2.30309 4.51132 6
    endloop
  endfacet
  facet normal 0.207912 0.978148 0
    outer loop
      vertex 2.17411 4.53874 6
      vertex 2.30309 4.51132 0
      vertex 2.17411 4.53874 0
    endloop
  endfacet
  facet normal 0.821148 0.570716 0
    outer loop
      vertex 2.91886 4.04393 6
      vertex 2.8436 4.1522 0
      vertex 2.8436 4.1522 6
    endloop
  endfacet
  facet normal 0.821148 0.570716 0
    outer loop
      vertex 2.8436 4.1522 0
      vertex 2.91886 4.04393 6
      vertex 2.91886 4.04393 0
    endloop
  endfacet
  facet normal 0.743146 0.669129 0
    outer loop
      vertex 2.8436 4.1522 6
      vertex 2.75537 4.2502 0
      vertex 2.75537 4.2502 6
    endloop
  endfacet
  facet normal 0.743146 0.669129 0
    outer loop
      vertex 2.75537 4.2502 0
      vertex 2.8436 4.1522 6
      vertex 2.8436 4.1522 0
    endloop
  endfacet
  facet normal 0.444631 0.895714 -0
    outer loop
      vertex 2.54573 4.40933 0
      vertex 2.42762 4.46796 6
      vertex 2.54573 4.40933 6
    endloop
  endfacet
  facet normal 0.444631 0.895714 0
    outer loop
      vertex 2.42762 4.46796 6
      vertex 2.54573 4.40933 0
      vertex 2.42762 4.46796 0
    endloop
  endfacet
  facet normal 0.0836799 0.996493 -0
    outer loop
      vertex 2.17411 4.53874 0
      vertex 2.04272 4.54977 6
      vertex 2.17411 4.53874 6
    endloop
  endfacet
  facet normal 0.0836799 0.996493 0
    outer loop
      vertex 2.04272 4.54977 6
      vertex 2.17411 4.53874 0
      vertex 2.04272 4.54977 0
    endloop
  endfacet
  facet normal 0.653424 0.756992 -0
    outer loop
      vertex 2.75537 4.2502 0
      vertex 2.65555 4.33636 6
      vertex 2.75537 4.2502 6
    endloop
  endfacet
  facet normal 0.653424 0.756992 0
    outer loop
      vertex 2.65555 4.33636 6
      vertex 2.75537 4.2502 0
      vertex 2.65555 4.33636 0
    endloop
  endfacet
  facet normal -0.821148 0.570716 0
    outer loop
      vertex -2.91886 4.04393 0
      vertex -2.8436 4.1522 6
      vertex -2.8436 4.1522 0
    endloop
  endfacet
  facet normal -0.821148 0.570716 0
    outer loop
      vertex -2.8436 4.1522 6
      vertex -2.91886 4.04393 0
      vertex -2.91886 4.04393 6
    endloop
  endfacet
  facet normal 0.041876 0.999123 -0
    outer loop
      vertex -1.91097 4.54425 0
      vertex -2.04272 4.54977 6
      vertex -1.91097 4.54425 6
    endloop
  endfacet
  facet normal 0.041876 0.999123 0
    outer loop
      vertex -2.04272 4.54977 6
      vertex -1.91097 4.54425 0
      vertex -2.04272 4.54977 0
    endloop
  endfacet
  facet normal -0.886204 0.463295 0
    outer loop
      vertex -2.97995 3.92707 0
      vertex -2.91886 4.04393 6
      vertex -2.91886 4.04393 0
    endloop
  endfacet
  facet normal -0.886204 0.463295 0
    outer loop
      vertex -2.91886 4.04393 6
      vertex -2.97995 3.92707 0
      vertex -2.97995 3.92707 6
    endloop
  endfacet
  facet normal -0.444631 0.895714 0
    outer loop
      vertex -2.42762 4.46796 0
      vertex -2.54573 4.40933 6
      vertex -2.42762 4.46796 6
    endloop
  endfacet
  facet normal -0.444631 0.895714 0
    outer loop
      vertex -2.54573 4.40933 6
      vertex -2.42762 4.46796 0
      vertex -2.54573 4.40933 0
    endloop
  endfacet
  facet normal -0.925806 0.377999 0
    outer loop
      vertex -3.71111 2.1363 0
      vertex -2.97995 3.92707 6
      vertex -2.97995 3.92707 0
    endloop
  endfacet
  facet normal -0.925806 0.377999 0
    outer loop
      vertex -2.97995 3.92707 6
      vertex -3.71111 2.1363 0
      vertex -3.71111 2.1363 6
    endloop
  endfacet
  facet normal -0.0836799 0.996493 0
    outer loop
      vertex -2.04272 4.54977 0
      vertex -2.17411 4.53874 6
      vertex -2.04272 4.54977 6
    endloop
  endfacet
  facet normal -0.0836799 0.996493 0
    outer loop
      vertex -2.17411 4.53874 6
      vertex -2.04272 4.54977 0
      vertex -2.17411 4.53874 0
    endloop
  endfacet
  facet normal 0.137582 0.99049 -0
    outer loop
      vertex 0 4.27881 0
      vertex -1.91097 4.54425 6
      vertex 0 4.27881 6
    endloop
  endfacet
  facet normal 0.137582 0.99049 0
    outer loop
      vertex -1.91097 4.54425 6
      vertex 0 4.27881 0
      vertex -1.91097 4.54425 0
    endloop
  endfacet
  facet normal -0.207912 0.978148 0
    outer loop
      vertex -2.17411 4.53874 0
      vertex -2.30309 4.51132 6
      vertex -2.17411 4.53874 6
    endloop
  endfacet
  facet normal -0.207912 0.978148 0
    outer loop
      vertex -2.30309 4.51132 6
      vertex -2.17411 4.53874 0
      vertex -2.30309 4.51132 0
    endloop
  endfacet
  facet normal -0.653424 0.756992 0
    outer loop
      vertex -2.65555 4.33636 0
      vertex -2.75537 4.2502 6
      vertex -2.65555 4.33636 6
    endloop
  endfacet
  facet normal -0.653424 0.756992 0
    outer loop
      vertex -2.75537 4.2502 6
      vertex -2.65555 4.33636 0
      vertex -2.75537 4.2502 0
    endloop
  endfacet
  facet normal -0.553393 0.832921 0
    outer loop
      vertex -2.54573 4.40933 0
      vertex -2.65555 4.33636 6
      vertex -2.54573 4.40933 6
    endloop
  endfacet
  facet normal -0.553393 0.832921 0
    outer loop
      vertex -2.65555 4.33636 6
      vertex -2.54573 4.40933 0
      vertex -2.65555 4.33636 0
    endloop
  endfacet
  facet normal -0.743146 0.669129 0
    outer loop
      vertex -2.8436 4.1522 0
      vertex -2.75537 4.2502 6
      vertex -2.75537 4.2502 0
    endloop
  endfacet
  facet normal -0.743146 0.669129 0
    outer loop
      vertex -2.75537 4.2502 6
      vertex -2.8436 4.1522 0
      vertex -2.8436 4.1522 6
    endloop
  endfacet
  facet normal -0.328866 0.944376 0
    outer loop
      vertex -2.30309 4.51132 0
      vertex -2.42762 4.46796 6
      vertex -2.30309 4.51132 6
    endloop
  endfacet
  facet normal -0.328866 0.944376 0
    outer loop
      vertex -2.42762 4.46796 6
      vertex -2.30309 4.51132 0
      vertex -2.42762 4.46796 0
    endloop
  endfacet
  facet normal -0.789787 0.613381 0
    outer loop
      vertex -4.89092 0.617174 0
      vertex -3.71111 2.1363 6
      vertex -3.71111 2.1363 0
    endloop
  endfacet
  facet normal -0.789787 0.613381 0
    outer loop
      vertex -3.71111 2.1363 6
      vertex -4.89092 0.617174 0
      vertex -4.89092 0.617174 6
    endloop
  endfacet
  facet normal -0.789787 -0.613381 0
    outer loop
      vertex -3.71111 -2.1363 0
      vertex -4.89092 -0.617174 6
      vertex -4.89092 -0.617174 0
    endloop
  endfacet
  facet normal -0.789787 -0.613381 0
    outer loop
      vertex -4.89092 -0.617174 6
      vertex -3.71111 -2.1363 0
      vertex -3.71111 -2.1363 6
    endloop
  endfacet
  facet normal -0.998027 0.0627925 0
    outer loop
      vertex -5.09145 0 0
      vertex -5.08317 0.131599 6
      vertex -5.08317 0.131599 0
    endloop
  endfacet
  facet normal -0.998027 0.0627925 0
    outer loop
      vertex -5.08317 0.131599 6
      vertex -5.09145 0 0
      vertex -5.09145 0 6
    endloop
  endfacet
  facet normal -0.844328 0.535826 0
    outer loop
      vertex -4.96157 0.505841 0
      vertex -4.89092 0.617174 6
      vertex -4.89092 0.617174 0
    endloop
  endfacet
  facet normal -0.844328 0.535826 0
    outer loop
      vertex -4.89092 0.617174 6
      vertex -4.96157 0.505841 0
      vertex -4.96157 0.505841 6
    endloop
  endfacet
  facet normal -0.951055 0.309022 0
    outer loop
      vertex -5.05846 0.261124 0
      vertex -5.01772 0.38653 6
      vertex -5.01772 0.38653 0
    endloop
  endfacet
  facet normal -0.951055 0.309022 0
    outer loop
      vertex -5.01772 0.38653 6
      vertex -5.05846 0.261124 0
      vertex -5.05846 0.261124 6
    endloop
  endfacet
  facet normal -0.998027 -0.0627925 0
    outer loop
      vertex -5.08317 -0.131599 0
      vertex -5.09145 0 6
      vertex -5.09145 0 0
    endloop
  endfacet
  facet normal -0.998027 -0.0627925 0
    outer loop
      vertex -5.09145 0 6
      vertex -5.08317 -0.131599 0
      vertex -5.08317 -0.131599 6
    endloop
  endfacet
  facet normal -0.982288 0.187379 0
    outer loop
      vertex -5.08317 0.131599 0
      vertex -5.05846 0.261124 6
      vertex -5.05846 0.261124 0
    endloop
  endfacet
  facet normal -0.982288 0.187379 0
    outer loop
      vertex -5.05846 0.261124 6
      vertex -5.08317 0.131599 0
      vertex -5.08317 0.131599 6
    endloop
  endfacet
  facet normal -0.90483 0.425774 0
    outer loop
      vertex -5.01772 0.38653 0
      vertex -4.96157 0.505841 6
      vertex -4.96157 0.505841 0
    endloop
  endfacet
  facet normal -0.90483 0.425774 0
    outer loop
      vertex -4.96157 0.505841 6
      vertex -5.01772 0.38653 0
      vertex -5.01772 0.38653 6
    endloop
  endfacet
  facet normal -0.844328 -0.535826 0
    outer loop
      vertex -4.89092 -0.617174 0
      vertex -4.96157 -0.505841 6
      vertex -4.96157 -0.505841 0
    endloop
  endfacet
  facet normal -0.844328 -0.535826 0
    outer loop
      vertex -4.96157 -0.505841 6
      vertex -4.89092 -0.617174 0
      vertex -4.89092 -0.617174 6
    endloop
  endfacet
  facet normal -0.951055 -0.309022 0
    outer loop
      vertex -5.01772 -0.38653 0
      vertex -5.05846 -0.261124 6
      vertex -5.05846 -0.261124 0
    endloop
  endfacet
  facet normal -0.951055 -0.309022 0
    outer loop
      vertex -5.05846 -0.261124 6
      vertex -5.01772 -0.38653 0
      vertex -5.01772 -0.38653 6
    endloop
  endfacet
  facet normal -0.90483 -0.425774 0
    outer loop
      vertex -4.96157 -0.505841 0
      vertex -5.01772 -0.38653 6
      vertex -5.01772 -0.38653 0
    endloop
  endfacet
  facet normal -0.90483 -0.425774 0
    outer loop
      vertex -5.01772 -0.38653 6
      vertex -4.96157 -0.505841 0
      vertex -4.96157 -0.505841 6
    endloop
  endfacet
  facet normal -0.982288 -0.187379 0
    outer loop
      vertex -5.05846 -0.261124 0
      vertex -5.08317 -0.131599 6
      vertex -5.08317 -0.131599 0
    endloop
  endfacet
  facet normal -0.982288 -0.187379 0
    outer loop
      vertex -5.08317 -0.131599 6
      vertex -5.05846 -0.261124 0
      vertex -5.05846 -0.261124 6
    endloop
  endfacet
  facet normal 0.137582 -0.99049 0
    outer loop
      vertex -1.91097 -4.54425 0
      vertex 0 -4.27881 6
      vertex -1.91097 -4.54425 6
    endloop
  endfacet
  facet normal 0.137582 -0.99049 0
    outer loop
      vertex 0 -4.27881 6
      vertex -1.91097 -4.54425 0
      vertex 0 -4.27881 0
    endloop
  endfacet
  facet normal -0.0836799 -0.996493 0
    outer loop
      vertex -2.17411 -4.53874 0
      vertex -2.04272 -4.54977 6
      vertex -2.17411 -4.53874 6
    endloop
  endfacet
  facet normal -0.0836799 -0.996493 -0
    outer loop
      vertex -2.04272 -4.54977 6
      vertex -2.17411 -4.53874 0
      vertex -2.04272 -4.54977 0
    endloop
  endfacet
  facet normal -0.821148 -0.570716 0
    outer loop
      vertex -2.8436 -4.1522 0
      vertex -2.91886 -4.04393 6
      vertex -2.91886 -4.04393 0
    endloop
  endfacet
  facet normal -0.821148 -0.570716 0
    outer loop
      vertex -2.91886 -4.04393 6
      vertex -2.8436 -4.1522 0
      vertex -2.8436 -4.1522 6
    endloop
  endfacet
  facet normal -0.925806 -0.377999 0
    outer loop
      vertex -2.97995 -3.92707 0
      vertex -3.71111 -2.1363 6
      vertex -3.71111 -2.1363 0
    endloop
  endfacet
  facet normal -0.925806 -0.377999 0
    outer loop
      vertex -3.71111 -2.1363 6
      vertex -2.97995 -3.92707 0
      vertex -2.97995 -3.92707 6
    endloop
  endfacet
  facet normal 0.041876 -0.999123 0
    outer loop
      vertex -2.04272 -4.54977 0
      vertex -1.91097 -4.54425 6
      vertex -2.04272 -4.54977 6
    endloop
  endfacet
  facet normal 0.041876 -0.999123 0
    outer loop
      vertex -1.91097 -4.54425 6
      vertex -2.04272 -4.54977 0
      vertex -1.91097 -4.54425 0
    endloop
  endfacet
  facet normal -0.653424 -0.756992 0
    outer loop
      vertex -2.75537 -4.2502 0
      vertex -2.65555 -4.33636 6
      vertex -2.75537 -4.2502 6
    endloop
  endfacet
  facet normal -0.653424 -0.756992 -0
    outer loop
      vertex -2.65555 -4.33636 6
      vertex -2.75537 -4.2502 0
      vertex -2.65555 -4.33636 0
    endloop
  endfacet
  facet normal -0.886204 -0.463295 0
    outer loop
      vertex -2.91886 -4.04393 0
      vertex -2.97995 -3.92707 6
      vertex -2.97995 -3.92707 0
    endloop
  endfacet
  facet normal -0.886204 -0.463295 0
    outer loop
      vertex -2.97995 -3.92707 6
      vertex -2.91886 -4.04393 0
      vertex -2.91886 -4.04393 6
    endloop
  endfacet
  facet normal -0.444631 -0.895714 0
    outer loop
      vertex -2.54573 -4.40933 0
      vertex -2.42762 -4.46796 6
      vertex -2.54573 -4.40933 6
    endloop
  endfacet
  facet normal -0.444631 -0.895714 -0
    outer loop
      vertex -2.42762 -4.46796 6
      vertex -2.54573 -4.40933 0
      vertex -2.42762 -4.46796 0
    endloop
  endfacet
  facet normal -0.207912 -0.978148 0
    outer loop
      vertex -2.30309 -4.51132 0
      vertex -2.17411 -4.53874 6
      vertex -2.30309 -4.51132 6
    endloop
  endfacet
  facet normal -0.207912 -0.978148 -0
    outer loop
      vertex -2.17411 -4.53874 6
      vertex -2.30309 -4.51132 0
      vertex -2.17411 -4.53874 0
    endloop
  endfacet
  facet normal -0.553393 -0.832921 0
    outer loop
      vertex -2.65555 -4.33636 0
      vertex -2.54573 -4.40933 6
      vertex -2.65555 -4.33636 6
    endloop
  endfacet
  facet normal -0.553393 -0.832921 -0
    outer loop
      vertex -2.54573 -4.40933 6
      vertex -2.65555 -4.33636 0
      vertex -2.54573 -4.40933 0
    endloop
  endfacet
  facet normal -0.743146 -0.669129 0
    outer loop
      vertex -2.75537 -4.2502 0
      vertex -2.8436 -4.1522 6
      vertex -2.8436 -4.1522 0
    endloop
  endfacet
  facet normal -0.743146 -0.669129 0
    outer loop
      vertex -2.8436 -4.1522 6
      vertex -2.75537 -4.2502 0
      vertex -2.75537 -4.2502 6
    endloop
  endfacet
  facet normal -0.328866 -0.944376 0
    outer loop
      vertex -2.42762 -4.46796 0
      vertex -2.30309 -4.51132 6
      vertex -2.42762 -4.46796 6
    endloop
  endfacet
  facet normal -0.328866 -0.944376 -0
    outer loop
      vertex -2.30309 -4.51132 6
      vertex -2.42762 -4.46796 0
      vertex -2.30309 -4.51132 0
    endloop
  endfacet
  facet normal -0.137582 -0.99049 0
    outer loop
      vertex 0 -4.27881 0
      vertex 1.91097 -4.54425 6
      vertex 0 -4.27881 6
    endloop
  endfacet
  facet normal -0.137582 -0.99049 -0
    outer loop
      vertex 1.91097 -4.54425 6
      vertex 0 -4.27881 0
      vertex 1.91097 -4.54425 0
    endloop
  endfacet
  facet normal 0.886204 -0.463295 0
    outer loop
      vertex 2.91886 -4.04393 6
      vertex 2.97995 -3.92707 0
      vertex 2.97995 -3.92707 6
    endloop
  endfacet
  facet normal 0.886204 -0.463295 0
    outer loop
      vertex 2.97995 -3.92707 0
      vertex 2.91886 -4.04393 6
      vertex 2.91886 -4.04393 0
    endloop
  endfacet
  facet normal 0.925806 -0.377999 0
    outer loop
      vertex 2.97995 -3.92707 6
      vertex 3.71111 -2.1363 0
      vertex 3.71111 -2.1363 6
    endloop
  endfacet
  facet normal 0.925806 -0.377999 0
    outer loop
      vertex 3.71111 -2.1363 0
      vertex 2.97995 -3.92707 6
      vertex 2.97995 -3.92707 0
    endloop
  endfacet
  facet normal 0.743146 -0.669129 0
    outer loop
      vertex 2.75537 -4.2502 6
      vertex 2.8436 -4.1522 0
      vertex 2.8436 -4.1522 6
    endloop
  endfacet
  facet normal 0.743146 -0.669129 0
    outer loop
      vertex 2.8436 -4.1522 0
      vertex 2.75537 -4.2502 6
      vertex 2.75537 -4.2502 0
    endloop
  endfacet
  facet normal -0.041876 -0.999123 0
    outer loop
      vertex 1.91097 -4.54425 0
      vertex 2.04272 -4.54977 6
      vertex 1.91097 -4.54425 6
    endloop
  endfacet
  facet normal -0.041876 -0.999123 -0
    outer loop
      vertex 2.04272 -4.54977 6
      vertex 1.91097 -4.54425 0
      vertex 2.04272 -4.54977 0
    endloop
  endfacet
  facet normal 0.207912 -0.978148 0
    outer loop
      vertex 2.17411 -4.53874 0
      vertex 2.30309 -4.51132 6
      vertex 2.17411 -4.53874 6
    endloop
  endfacet
  facet normal 0.207912 -0.978148 0
    outer loop
      vertex 2.30309 -4.51132 6
      vertex 2.17411 -4.53874 0
      vertex 2.30309 -4.51132 0
    endloop
  endfacet
  facet normal 0.821148 -0.570716 0
    outer loop
      vertex 2.8436 -4.1522 6
      vertex 2.91886 -4.04393 0
      vertex 2.91886 -4.04393 6
    endloop
  endfacet
  facet normal 0.821148 -0.570716 0
    outer loop
      vertex 2.91886 -4.04393 0
      vertex 2.8436 -4.1522 6
      vertex 2.8436 -4.1522 0
    endloop
  endfacet
  facet normal 0.0836799 -0.996493 0
    outer loop
      vertex 2.04272 -4.54977 0
      vertex 2.17411 -4.53874 6
      vertex 2.04272 -4.54977 6
    endloop
  endfacet
  facet normal 0.0836799 -0.996493 0
    outer loop
      vertex 2.17411 -4.53874 6
      vertex 2.04272 -4.54977 0
      vertex 2.17411 -4.53874 0
    endloop
  endfacet
  facet normal 0.553393 -0.832921 0
    outer loop
      vertex 2.54573 -4.40933 0
      vertex 2.65555 -4.33636 6
      vertex 2.54573 -4.40933 6
    endloop
  endfacet
  facet normal 0.553393 -0.832921 0
    outer loop
      vertex 2.65555 -4.33636 6
      vertex 2.54573 -4.40933 0
      vertex 2.65555 -4.33636 0
    endloop
  endfacet
  facet normal 0.653424 -0.756992 0
    outer loop
      vertex 2.65555 -4.33636 0
      vertex 2.75537 -4.2502 6
      vertex 2.65555 -4.33636 6
    endloop
  endfacet
  facet normal 0.653424 -0.756992 0
    outer loop
      vertex 2.75537 -4.2502 6
      vertex 2.65555 -4.33636 0
      vertex 2.75537 -4.2502 0
    endloop
  endfacet
  facet normal 0.328866 -0.944376 0
    outer loop
      vertex 2.30309 -4.51132 0
      vertex 2.42762 -4.46796 6
      vertex 2.30309 -4.51132 6
    endloop
  endfacet
  facet normal 0.328866 -0.944376 0
    outer loop
      vertex 2.42762 -4.46796 6
      vertex 2.30309 -4.51132 0
      vertex 2.42762 -4.46796 0
    endloop
  endfacet
  facet normal 0.444631 -0.895714 0
    outer loop
      vertex 2.42762 -4.46796 0
      vertex 2.54573 -4.40933 6
      vertex 2.42762 -4.46796 6
    endloop
  endfacet
  facet normal 0.444631 -0.895714 0
    outer loop
      vertex 2.54573 -4.40933 6
      vertex 2.42762 -4.46796 0
      vertex 2.54573 -4.40933 0
    endloop
  endfacet
  facet normal -0.866025 -0.5 0
    outer loop
      vertex 4.04145 0 3.01
      vertex 2.02073 3.5 6
      vertex 2.02073 3.5 3.01
    endloop
  endfacet
  facet normal -0.866025 -0.5 0
    outer loop
      vertex 2.02073 3.5 6
      vertex 4.04145 0 3.01
      vertex 4.04145 0 6
    endloop
  endfacet
  facet normal 0.866025 -0.5 0
    outer loop
      vertex -4.04145 0 6
      vertex -2.02073 3.5 3.01
      vertex -2.02073 3.5 6
    endloop
  endfacet
  facet normal 0.866025 -0.5 0
    outer loop
      vertex -2.02073 3.5 3.01
      vertex -4.04145 0 6
      vertex -4.04145 0 3.01
    endloop
  endfacet
  facet normal 0 -1 0
    outer loop
      vertex -2.02073 3.5 3.01
      vertex 2.02073 3.5 6
      vertex -2.02073 3.5 6
    endloop
  endfacet
  facet normal 0 -1 -0
    outer loop
      vertex 2.02073 3.5 6
      vertex -2.02073 3.5 3.01
      vertex 2.02073 3.5 3.01
    endloop
  endfacet
  facet normal 0 0 1
    outer loop
      vertex 2.02073 3.5 3.01
      vertex 2.02073 -3.5 3.01
      vertex 4.04145 0 3.01
    endloop
  endfacet
  facet normal -0 0 1
    outer loop
      vertex -2.02073 3.5 3.01
      vertex 2.02073 -3.5 3.01
      vertex 2.02073 3.5 3.01
    endloop
  endfacet
  facet normal 0 0 1
    outer loop
      vertex -2.02073 3.5 3.01
      vertex -2.02073 -3.5 3.01
      vertex 2.02073 -3.5 3.01
    endloop
  endfacet
  facet normal 0 -0 1
    outer loop
      vertex -2.02073 -3.5 3.01
      vertex -2.02073 3.5 3.01
      vertex -4.04145 0 3.01
    endloop
  endfacet
  facet normal 0 1 -0
    outer loop
      vertex 2.02073 -3.5 3.01
      vertex -2.02073 -3.5 6
      vertex 2.02073 -3.5 6
    endloop
  endfacet
  facet normal 0 1 0
    outer loop
      vertex -2.02073 -3.5 6
      vertex 2.02073 -3.5 3.01
      vertex -2.02073 -3.5 3.01
    endloop
  endfacet
  facet normal 0.866025 0.5 0
    outer loop
      vertex -2.02073 -3.5 6
      vertex -4.04145 0 3.01
      vertex -4.04145 0 6
    endloop
  endfacet
  facet normal 0.866025 0.5 0
    outer loop
      vertex -4.04145 0 3.01
      vertex -2.02073 -3.5 6
      vertex -2.02073 -3.5 3.01
    endloop
  endfacet
  facet normal -0.866025 0.5 0
    outer loop
      vertex 2.02073 -3.5 3.01
      vertex 4.04145 0 6
      vertex 4.04145 0 3.01
    endloop
  endfacet
  facet normal -0.866025 0.5 0
    outer loop
      vertex 4.04145 0 6
      vertex 2.02073 -3.5 3.01
      vertex 2.02073 -3.5 6
    endloop
  endfacet
endsolid OpenSCAD_Model
